what,kind,bundleId,bundleVersion,description,time
activated,view,com.altera.sbtgui.launch,10.1.1.153,"com.altera.sbtgui.launch.hardware.ByteStreamConsoleView",1464201403829
activated,view,org.eclipse.ui.console,3.4.0.v20090513,"org.eclipse.ui.console.ConsoleView",1464201408288
error,log,,,"Failed Executing: [nios2-download, '--cable=USB-Blaster on localhost [USB-0]', --device=1, --instance=0, --stop, --sidp=0x1001150, --id=0x0, --timestamp=1462407791] return code: 8",1464201410088
activated,view,com.altera.sbtgui.launch,10.1.1.153,"com.altera.sbtgui.launch.hardware.ByteStreamConsoleView",1464201410210
activated,view,org.eclipse.ui.console,3.4.0.v20090513,"org.eclipse.ui.console.ConsoleView",1464201413700
activated,view,com.altera.sbtgui.launch,10.1.1.153,"com.altera.sbtgui.launch.hardware.ByteStreamConsoleView",1464201415660
deactivated,workbench,org.eclipse.ui.workbench,3.5.1.M20090826-0800a,"",1464201421672
activated,workbench,org.eclipse.ui.workbench,3.5.1.M20090826-0800a,"",1464201422347
error,log,,,"SOPC design not set.",1464201422372
error,log,,,"CPU module not set.",1464201422375
error,log,,,"The SOPC design does not contain a CPU of a supported architecture.",1464201422377
error,log,,,"CPU architecture type not set. ",1464201422379
error,log,,,"CPU master group not set.",1464201422380
error,log,,,"SOPC design not set.",1464201422477
error,log,,,"CPU module not set.",1464201422478
error,log,,,"The SOPC design does not contain a CPU of a supported architecture.",1464201422478
error,log,,,"CPU architecture type not set. ",1464201422478
error,log,,,"CPU master group not set.",1464201422479
activated,view,org.eclipse.ui.console,3.4.0.v20090513,"org.eclipse.ui.console.ConsoleView",1464201426148
activated,view,com.altera.sbtgui.launch,10.1.1.153,"com.altera.sbtgui.launch.hardware.ByteStreamConsoleView",1464201432254
activated,editor,org.eclipse.cdt.ui,5.1.1.200909110608,"org.eclipse.cdt.ui.editor.CEditor",1464201482839
executed,command,org.eclipse.ui,3.5.1.M20090902-1000,"org.eclipse.ui.edit.cut",1464201759297
executed,command,org.eclipse.ui,3.5.1.M20090902-1000,"org.eclipse.ui.edit.paste",1464201762682
executed,command,org.eclipse.ui,3.5.1.M20090902-1000,"org.eclipse.ui.file.save",1464201767564
deactivated,workbench,org.eclipse.ui.workbench,3.5.1.M20090826-0800a,"",1464201795709
