what,kind,bundleId,bundleVersion,description,time
error,log,,,"SOPC design not set.",1464808728690
error,log,,,"CPU module not set.",1464808728690
error,log,,,"The SOPC design does not contain a CPU of a supported architecture.",1464808728690
error,log,,,"CPU architecture type not set. ",1464808728691
error,log,,,"CPU master group not set.",1464808728691
opened,view,com.altera.sbtgui.launch,10.1.1.153,"com.altera.sbtgui.launch.hardware.ByteStreamConsoleView",1464808730425
error,log,,,"sun.awt.X11.XlibWrapper",1464808730647
started,bundle,org.eclipse.cdt.debug.mi.ui,6.0.0.200909110608,"org.eclipse.cdt.debug.mi.ui",1464808730762
started,bundle,org.eclipse.cdt.debug.mi.core,6.0.0.200909110608,"org.eclipse.cdt.debug.mi.core",1464808730770
opened,editor,org.eclipse.ui.editors,3.5.0.v20090527-2000,"org.eclipse.ui.DefaultTextEditor",1464808765154
activated,editor,org.eclipse.ui.editors,3.5.0.v20090527-2000,"org.eclipse.ui.DefaultTextEditor",1464808765195
deactivated,workbench,org.eclipse.ui.workbench,3.5.1.M20090826-0800a,"",1464808779496
executed,command,org.eclipse.ui,3.5.1.M20090902-1000,"org.eclipse.ui.edit.findReplace",1464808779522
activated,workbench,org.eclipse.ui.workbench,3.5.1.M20090826-0800a,"",1464808798375
activated,view,org.eclipse.ui.navigator.resources,3.4.1.M20090826-0800,"org.eclipse.ui.navigator.ProjectExplorer",1464808802262
opened,editor,org.eclipse.cdt.make.ui,6.0.1.200909110608,"org.eclipse.cdt.make.editor",1464808804080
activated,editor,org.eclipse.cdt.make.ui,6.0.1.200909110608,"org.eclipse.cdt.make.editor",1464808804152
deactivated,workbench,org.eclipse.ui.workbench,3.5.1.M20090826-0800a,"",1464808806558
executed,command,org.eclipse.ui,3.5.1.M20090902-1000,"org.eclipse.ui.edit.findReplace",1464808806581
activated,workbench,org.eclipse.ui.workbench,3.5.1.M20090826-0800a,"",1464808810940
deactivated,workbench,org.eclipse.ui.workbench,3.5.1.M20090826-0800a,"",1464808816104
executed,command,org.eclipse.ui,3.5.1.M20090902-1000,"org.eclipse.ui.edit.findReplace",1464808816126
activated,workbench,org.eclipse.ui.workbench,3.5.1.M20090826-0800a,"",1464808822537
activated,view,org.eclipse.ui.navigator.resources,3.4.1.M20090826-0800,"org.eclipse.ui.navigator.ProjectExplorer",1464808825239
opened,editor,org.eclipse.cdt.make.ui,6.0.1.200909110608,"org.eclipse.cdt.make.editor",1464808825460
