what,kind,bundleId,bundleVersion,description,time
error,log,,,"CPU master group not set.",1463240194462
error,log,,,"Expected base address of system ID component is undefined.",1463240194465
error,log,,,"SOPC design not set.",1463240194468
error,log,,,"CPU module not set.",1463240194471
error,log,,,"The SOPC design does not contain a CPU of a supported architecture.",1463240194474
error,log,,,"CPU architecture type not set. ",1463240194480
error,log,,,"CPU master group not set.",1463240194482
error,log,,,"Expected base address of system ID component is undefined.",1463240194485
error,log,,,"Select one of the available target connection paths.",1463240194487
error,log,,,"SOPC design not set.",1463240194490
error,log,,,"CPU module not set.",1463240194492
error,log,,,"The SOPC design does not contain a CPU of a supported architecture.",1463240194494
error,log,,,"CPU architecture type not set. ",1463240194497
error,log,,,"CPU master group not set.",1463240194501
error,log,,,"Expected base address of system ID component is undefined.",1463240194504
error,log,,,"Select one of the available target connection paths.",1463240194506
error,log,,,"Select one of the available target Nios II byte stream device paths.",1463240194508
error,log,,,"SOPC design not set.",1463240194511
error,log,,,"CPU module not set.",1463240194513
error,log,,,"The SOPC design does not contain a CPU of a supported architecture.",1463240194516
error,log,,,"CPU architecture type not set. ",1463240194518
error,log,,,"CPU master group not set.",1463240194520
error,log,,,"Expected base address of system ID component is undefined.",1463240194523
error,log,,,"SOPC design not set.",1463240194525
error,log,,,"CPU module not set.",1463240194528
