what,kind,bundleId,bundleVersion,description,time
error,log,,,"SOPC design not set.",1464814141005
error,log,,,"CPU module not set.",1464814141006
error,log,,,"The SOPC design does not contain a CPU of a supported architecture.",1464814141006
error,log,,,"CPU architecture type not set. ",1464814141006
error,log,,,"CPU master group not set.",1464814141007
activated,view,com.altera.sbtgui.launch,10.1.1.153,"com.altera.sbtgui.launch.hardware.ByteStreamConsoleView",1464814141119
activated,view,org.eclipse.ui.console,3.4.0.v20090513,"org.eclipse.ui.console.ConsoleView",1464814144763
activated,view,com.altera.sbtgui.launch,10.1.1.153,"com.altera.sbtgui.launch.hardware.ByteStreamConsoleView",1464814150876
activated,view,org.eclipse.ui.navigator.resources,3.4.1.M20090826-0800,"org.eclipse.ui.navigator.ProjectExplorer",1464814198105
activated,view,com.altera.sbtgui.launch,10.1.1.153,"com.altera.sbtgui.launch.hardware.ByteStreamConsoleView",1464814200957
executed,command,org.eclipse.ui,3.5.1.M20090902-1000,"org.eclipse.ui.edit.selectAll",1464814202779
deactivated,workbench,org.eclipse.ui.workbench,3.5.1.M20090826-0800a,"",1464814204918
activated,workbench,org.eclipse.ui.workbench,3.5.1.M20090826-0800a,"",1464814225383
activated,view,org.eclipse.ui.navigator.resources,3.4.1.M20090826-0800,"org.eclipse.ui.navigator.ProjectExplorer",1464814226622
activated,view,com.altera.sbtgui.launch,10.1.1.153,"com.altera.sbtgui.launch.hardware.ByteStreamConsoleView",1464814228377
executed,command,org.eclipse.ui,3.5.1.M20090902-1000,"org.eclipse.ui.edit.selectAll",1464814230042
deactivated,workbench,org.eclipse.ui.workbench,3.5.1.M20090826-0800a,"",1464814231957
activated,workbench,org.eclipse.ui.workbench,3.5.1.M20090826-0800a,"",1464814237570
activated,view,org.eclipse.ui.navigator.resources,3.4.1.M20090826-0800,"org.eclipse.ui.navigator.ProjectExplorer",1464814238888
activated,view,com.altera.sbtgui.launch,10.1.1.153,"com.altera.sbtgui.launch.hardware.ByteStreamConsoleView",1464814240034
executed,command,org.eclipse.ui,3.5.1.M20090902-1000,"org.eclipse.ui.edit.selectAll",1464814242177
deactivated,workbench,org.eclipse.ui.workbench,3.5.1.M20090826-0800a,"",1464814245221
activated,workbench,org.eclipse.ui.workbench,3.5.1.M20090826-0800a,"",1464814248083
deactivated,workbench,org.eclipse.ui.workbench,3.5.1.M20090826-0800a,"",1464814251034
activated,workbench,org.eclipse.ui.workbench,3.5.1.M20090826-0800a,"",1464814251692
