what,kind,bundleId,bundleVersion,description,time
executed,command,org.eclipse.ui,3.5.1.M20090902-1000,"org.eclipse.ui.edit.undo",1464642250484
executed,command,org.eclipse.ui,3.5.1.M20090902-1000,"org.eclipse.ui.edit.undo",1464642250728
executed,command,org.eclipse.ui,3.5.1.M20090902-1000,"org.eclipse.ui.edit.undo",1464642250968
executed,command,org.eclipse.ui,3.5.1.M20090902-1000,"org.eclipse.ui.edit.undo",1464642251199
executed,command,org.eclipse.ui,3.5.1.M20090902-1000,"org.eclipse.ui.edit.undo",1464642251444
executed,command,org.eclipse.ui,3.5.1.M20090902-1000,"org.eclipse.ui.edit.undo",1464642251826
executed,command,org.eclipse.cdt.ui,5.1.1.200909110608,"org.eclipse.cdt.ui.edit.text.c.toggle.comment",1464642255713
executed,command,org.eclipse.ui,3.5.1.M20090902-1000,"org.eclipse.ui.edit.paste",1464642257567
executed,command,org.eclipse.ui.workbench.texteditor,3.5.0.v20090603,"org.eclipse.ui.edit.text.shiftLeft",1464642259917
executed,command,org.eclipse.ui.workbench.texteditor,3.5.0.v20090603,"org.eclipse.ui.edit.text.shiftLeft",1464642260165
executed,command,org.eclipse.ui.workbench.texteditor,3.5.0.v20090603,"org.eclipse.ui.edit.text.shiftLeft",1464642260389
executed,command,org.eclipse.ui,3.5.1.M20090902-1000,"org.eclipse.ui.file.save",1464642265775
executed,command,org.eclipse.ui.ide,3.5.1.M20090826-0800,"org.eclipse.ui.project.buildAll",1464642268371
deactivated,workbench,org.eclipse.ui.workbench,3.5.1.M20090826-0800a,"",1464642268653
activated,workbench,org.eclipse.ui.workbench,3.5.1.M20090826-0800a,"",1464642272635
activated,view,org.eclipse.ui.navigator.resources,3.4.1.M20090826-0800,"org.eclipse.ui.navigator.ProjectExplorer",1464642278160
deactivated,workbench,org.eclipse.ui.workbench,3.5.1.M20090826-0800a,"",1464642279335
activated,workbench,org.eclipse.ui.workbench,3.5.1.M20090826-0800a,"",1464642280646
deactivated,workbench,org.eclipse.ui.workbench,3.5.1.M20090826-0800a,"",1464642280662
activated,workbench,org.eclipse.ui.workbench,3.5.1.M20090826-0800a,"",1464642282378
deactivated,workbench,org.eclipse.ui.workbench,3.5.1.M20090826-0800a,"",1464642284921
activated,workbench,org.eclipse.ui.workbench,3.5.1.M20090826-0800a,"",1464642285581
error,log,,,"SOPC design not set.",1464642285611
error,log,,,"CPU module not set.",1464642285613
error,log,,,"The SOPC design does not contain a CPU of a supported architecture.",1464642285615
