what,kind,bundleId,bundleVersion,description,time
error,log,,,"Connected system ID hash not found on target at expected base address.",1463256214549
error,log,,,"Connected system timestamp not found on target at expected base address.",1463256214550
error,log,,,"Connected system ID hash not found on target at expected base address.",1463256214650
error,log,,,"Connected system timestamp not found on target at expected base address.",1463256214650
error,log,,,"Connected system ID hash not found on target at expected base address.",1463256214750
error,log,,,"Connected system timestamp not found on target at expected base address.",1463256214750
error,log,,,"Connected system ID hash not found on target at expected base address.",1463256214850
error,log,,,"Connected system timestamp not found on target at expected base address.",1463256214850
error,log,,,"Connected system ID hash not found on target at expected base address.",1463256214951
error,log,,,"Connected system timestamp not found on target at expected base address.",1463256214952
error,log,,,"Connected system ID hash not found on target at expected base address.",1463256214952
error,log,,,"Connected system timestamp not found on target at expected base address.",1463256214952
error,log,,,"SOPC design not set.",1463256215015
error,log,,,"CPU module not set.",1463256215016
error,log,,,"The SOPC design does not contain a CPU of a supported architecture.",1463256215016
error,log,,,"CPU architecture type not set. ",1463256215016
error,log,,,"CPU master group not set.",1463256215017
error,log,,,"Connected system ID hash not found on target at expected base address.",1463256215017
error,log,,,"Connected system timestamp not found on target at expected base address.",1463256215017
error,log,,,"SOPC design not set.",1463256215018
error,log,,,"CPU module not set.",1463256215018
error,log,,,"The SOPC design does not contain a CPU of a supported architecture.",1463256215019
error,log,,,"CPU architecture type not set. ",1463256215019
error,log,,,"CPU master group not set.",1463256215019
error,log,,,"Expected base address of system ID component is undefined.",1463256215020
