what,kind,bundleId,bundleVersion,description,time
error,log,,,"The SOPC design does not contain a CPU of a supported architecture.",1464899357099
error,log,,,"CPU architecture type not set. ",1464899357099
error,log,,,"CPU master group not set.",1464899357099
activated,view,com.altera.sbtgui.launch,10.1.1.153,"com.altera.sbtgui.launch.hardware.ByteStreamConsoleView",1464899357212
activated,view,org.eclipse.ui.console,3.4.0.v20090513,"org.eclipse.ui.console.ConsoleView",1464899361042
activated,editor,org.eclipse.cdt.ui,5.1.1.200909110608,"org.eclipse.cdt.ui.editor.CEditor",1464899362682
activated,view,com.altera.sbtgui.launch,10.1.1.153,"com.altera.sbtgui.launch.hardware.ByteStreamConsoleView",1464899518786
deactivated,workbench,org.eclipse.ui.workbench,3.5.1.M20090826-0800a,"",1464899522390
activated,workbench,org.eclipse.ui.workbench,3.5.1.M20090826-0800a,"",1464899523803
executed,command,org.eclipse.ui.ide,3.5.1.M20090826-0800,"org.eclipse.ui.project.cleanAction",1464899523808
deactivated,workbench,org.eclipse.ui.workbench,3.5.1.M20090826-0800a,"",1464899524104
activated,workbench,org.eclipse.ui.workbench,3.5.1.M20090826-0800a,"",1464899525841
deactivated,workbench,org.eclipse.ui.workbench,3.5.1.M20090826-0800a,"",1464899525849
activated,workbench,org.eclipse.ui.workbench,3.5.1.M20090826-0800a,"",1464899527950
deactivated,workbench,org.eclipse.ui.workbench,3.5.1.M20090826-0800a,"",1464899541549
activated,workbench,org.eclipse.ui.workbench,3.5.1.M20090826-0800a,"",1464899545237
deactivated,workbench,org.eclipse.ui.workbench,3.5.1.M20090826-0800a,"",1464899570566
activated,workbench,org.eclipse.ui.workbench,3.5.1.M20090826-0800a,"",1464899571156
error,log,,,"SOPC design not set.",1464899571193
error,log,,,"CPU module not set.",1464899571197
error,log,,,"The SOPC design does not contain a CPU of a supported architecture.",1464899571202
error,log,,,"CPU architecture type not set. ",1464899571203
error,log,,,"CPU master group not set.",1464899571203
error,log,,,"SOPC design not set.",1464899571327
error,log,,,"CPU module not set.",1464899571327
