what,kind,bundleId,bundleVersion,description,time
error,log,,,"SOPC design not set.",1463256215020
error,log,,,"CPU module not set.",1463256215020
error,log,,,"The SOPC design does not contain a CPU of a supported architecture.",1463256215020
error,log,,,"CPU architecture type not set. ",1463256215024
error,log,,,"CPU master group not set.",1463256215024
error,log,,,"Expected base address of system ID component is undefined.",1463256215025
error,log,,,"SOPC design not set.",1463256215025
error,log,,,"CPU module not set.",1463256215025
error,log,,,"The SOPC design does not contain a CPU of a supported architecture.",1463256215025
error,log,,,"CPU architecture type not set. ",1463256215026
error,log,,,"CPU master group not set.",1463256215026
error,log,,,"Expected base address of system ID component is undefined.",1463256215026
error,log,,,"SOPC design not set.",1463256215027
error,log,,,"CPU module not set.",1463256215027
error,log,,,"The SOPC design does not contain a CPU of a supported architecture.",1463256215027
error,log,,,"CPU architecture type not set. ",1463256215028
error,log,,,"CPU master group not set.",1463256215028
error,log,,,"Expected base address of system ID component is undefined.",1463256215028
error,log,,,"SOPC design not set.",1463256215863
error,log,,,"CPU module not set.",1463256215865
error,log,,,"The SOPC design does not contain a CPU of a supported architecture.",1463256215865
error,log,,,"CPU architecture type not set. ",1463256215865
error,log,,,"CPU master group not set.",1463256215866
error,log,,,"Expected base address of system ID component is undefined.",1463256215866
error,log,,,"SOPC design not set.",1463256215867
