what,kind,bundleId,bundleVersion,description,time
activated,view,org.eclipse.ui.navigator.resources,3.4.1.M20090826-0800,"org.eclipse.ui.navigator.ProjectExplorer",1463250994042
executed,command,org.eclipse.ui.ide,3.5.1.M20090826-0800,"org.eclipse.ui.project.buildProject",1463250995568
deactivated,workbench,org.eclipse.ui.workbench,3.5.1.M20090826-0800a,"",1463250995868
activated,workbench,org.eclipse.ui.workbench,3.5.1.M20090826-0800a,"",1463250999476
deactivated,workbench,org.eclipse.ui.workbench,3.5.1.M20090826-0800a,"",1463251011436
activated,workbench,org.eclipse.ui.workbench,3.5.1.M20090826-0800a,"",1463251013461
executed,command,,,"com.altera.sbtgui.launch.hardware.Nios2HardwareLaunchShortcut.run",1463251014384
deactivated,workbench,org.eclipse.ui.workbench,3.5.1.M20090826-0800a,"",1463251016255
activated,workbench,org.eclipse.ui.workbench,3.5.1.M20090826-0800a,"",1463251016837
error,log,,,"SOPC design not set.",1463251016884
error,log,,,"CPU module not set.",1463251016886
error,log,,,"The SOPC design does not contain a CPU of a supported architecture.",1463251016888
error,log,,,"CPU architecture type not set. ",1463251016889
error,log,,,"CPU master group not set.",1463251016890
error,log,,,"SOPC design not set.",1463251016995
error,log,,,"CPU module not set.",1463251016996
error,log,,,"The SOPC design does not contain a CPU of a supported architecture.",1463251016996
error,log,,,"CPU architecture type not set. ",1463251016996
error,log,,,"CPU master group not set.",1463251016997
activated,view,com.altera.sbtgui.launch,10.1.1.153,"com.altera.sbtgui.launch.hardware.ByteStreamConsoleView",1463251017111
activated,view,org.eclipse.ui.console,3.4.0.v20090513,"org.eclipse.ui.console.ConsoleView",1463251020834
activated,view,com.altera.sbtgui.launch,10.1.1.153,"com.altera.sbtgui.launch.hardware.ByteStreamConsoleView",1463251026897
activated,editor,org.eclipse.cdt.ui,5.1.1.200909110608,"org.eclipse.cdt.ui.editor.CEditor",1463251034151
executed,command,org.eclipse.ui,3.5.1.M20090902-1000,"org.eclipse.ui.file.save",1463251035906
activated,view,org.eclipse.ui.navigator.resources,3.4.1.M20090826-0800,"org.eclipse.ui.navigator.ProjectExplorer",1463251037457
