what,kind,bundleId,bundleVersion,description,time
executed,command,org.eclipse.ui.ide,3.5.1.M20090826-0800,"org.eclipse.ui.project.buildAll",1464812092928
deactivated,workbench,org.eclipse.ui.workbench,3.5.1.M20090826-0800a,"",1464812093210
activated,workbench,org.eclipse.ui.workbench,3.5.1.M20090826-0800a,"",1464812097179
deactivated,workbench,org.eclipse.ui.workbench,3.5.1.M20090826-0800a,"",1464812098880
activated,workbench,org.eclipse.ui.workbench,3.5.1.M20090826-0800a,"",1464812099874
deactivated,workbench,org.eclipse.ui.workbench,3.5.1.M20090826-0800a,"",1464812099889
activated,workbench,org.eclipse.ui.workbench,3.5.1.M20090826-0800a,"",1464812101637
deactivated,workbench,org.eclipse.ui.workbench,3.5.1.M20090826-0800a,"",1464812104146
activated,workbench,org.eclipse.ui.workbench,3.5.1.M20090826-0800a,"",1464812104781
error,log,,,"SOPC design not set.",1464812104819
error,log,,,"CPU module not set.",1464812104822
error,log,,,"The SOPC design does not contain a CPU of a supported architecture.",1464812104824
error,log,,,"CPU architecture type not set. ",1464812104826
error,log,,,"CPU master group not set.",1464812104826
error,log,,,"SOPC design not set.",1464812104923
error,log,,,"CPU module not set.",1464812104924
error,log,,,"The SOPC design does not contain a CPU of a supported architecture.",1464812104924
error,log,,,"CPU architecture type not set. ",1464812104924
error,log,,,"CPU master group not set.",1464812104925
activated,view,com.altera.sbtgui.launch,10.1.1.153,"com.altera.sbtgui.launch.hardware.ByteStreamConsoleView",1464812105040
activated,view,org.eclipse.ui.console,3.4.0.v20090513,"org.eclipse.ui.console.ConsoleView",1464812108626
activated,view,com.altera.sbtgui.launch,10.1.1.153,"com.altera.sbtgui.launch.hardware.ByteStreamConsoleView",1464812114739
activated,view,org.eclipse.ui.ide,3.5.1.M20090826-0800,"org.eclipse.ui.views.ProblemView",1464812120162
activated,view,com.altera.sbtgui.launch,10.1.1.153,"com.altera.sbtgui.launch.hardware.ByteStreamConsoleView",1464812121114
deactivated,workbench,org.eclipse.ui.workbench,3.5.1.M20090826-0800a,"",1464812125438
