what,kind,bundleId,bundleVersion,description,time
deactivated,workbench,org.eclipse.ui.workbench,3.5.1.M20090826-0800a,"",1463255376610
activated,workbench,org.eclipse.ui.workbench,3.5.1.M20090826-0800a,"",1463255378850
deactivated,workbench,org.eclipse.ui.workbench,3.5.1.M20090826-0800a,"",1463255378867
activated,workbench,org.eclipse.ui.workbench,3.5.1.M20090826-0800a,"",1463255380853
error,log,,,"Connected system ID hash not found on target at expected base address.",1463255381659
error,log,,,"Connected system timestamp not found on target at expected base address.",1463255381661
error,log,,,"Connected system ID hash not found on target at expected base address.",1463255381763
error,log,,,"Connected system timestamp not found on target at expected base address.",1463255381765
error,log,,,"Connected system ID hash not found on target at expected base address.",1463255381865
error,log,,,"Connected system timestamp not found on target at expected base address.",1463255381866
error,log,,,"Connected system ID hash not found on target at expected base address.",1463255381966
error,log,,,"Connected system timestamp not found on target at expected base address.",1463255381967
error,log,,,"Connected system ID hash not found on target at expected base address.",1463255382067
error,log,,,"Connected system timestamp not found on target at expected base address.",1463255382068
error,log,,,"Connected system ID hash not found on target at expected base address.",1463255382168
error,log,,,"Connected system timestamp not found on target at expected base address.",1463255382169
error,log,,,"Connected system ID hash not found on target at expected base address.",1463255382269
error,log,,,"Connected system timestamp not found on target at expected base address.",1463255382269
error,log,,,"Connected system ID hash not found on target at expected base address.",1463255382370
error,log,,,"Connected system timestamp not found on target at expected base address.",1463255382370
error,log,,,"Connected system ID hash not found on target at expected base address.",1463255382470
error,log,,,"Connected system timestamp not found on target at expected base address.",1463255382470
error,log,,,"Connected system ID hash not found on target at expected base address.",1463255382570
error,log,,,"Connected system timestamp not found on target at expected base address.",1463255382570
error,log,,,"Connected system ID hash not found on target at expected base address.",1463255382670
