what,kind,bundleId,bundleVersion,description,time
executed,command,org.eclipse.ui.ide,3.5.1.M20090826-0800,"org.eclipse.ui.project.buildProject",1463251038789
deactivated,workbench,org.eclipse.ui.workbench,3.5.1.M20090826-0800a,"",1463251039078
activated,workbench,org.eclipse.ui.workbench,3.5.1.M20090826-0800a,"",1463251042602
deactivated,workbench,org.eclipse.ui.workbench,3.5.1.M20090826-0800a,"",1463251048429
activated,workbench,org.eclipse.ui.workbench,3.5.1.M20090826-0800a,"",1463251050193
deactivated,workbench,org.eclipse.ui.workbench,3.5.1.M20090826-0800a,"",1463251050210
activated,workbench,org.eclipse.ui.workbench,3.5.1.M20090826-0800a,"",1463251052163
deactivated,workbench,org.eclipse.ui.workbench,3.5.1.M20090826-0800a,"",1463251054833
activated,workbench,org.eclipse.ui.workbench,3.5.1.M20090826-0800a,"",1463251055364
error,log,,,"SOPC design not set.",1463251055394
error,log,,,"CPU module not set.",1463251055396
error,log,,,"The SOPC design does not contain a CPU of a supported architecture.",1463251055399
error,log,,,"CPU architecture type not set. ",1463251055399
error,log,,,"CPU master group not set.",1463251055399
error,log,,,"SOPC design not set.",1463251055507
error,log,,,"CPU module not set.",1463251055507
error,log,,,"The SOPC design does not contain a CPU of a supported architecture.",1463251055508
error,log,,,"CPU architecture type not set. ",1463251055508
error,log,,,"CPU master group not set.",1463251055508
activated,view,com.altera.sbtgui.launch,10.1.1.153,"com.altera.sbtgui.launch.hardware.ByteStreamConsoleView",1463251055619
activated,view,org.eclipse.ui.console,3.4.0.v20090513,"org.eclipse.ui.console.ConsoleView",1463251059258
activated,view,com.altera.sbtgui.launch,10.1.1.153,"com.altera.sbtgui.launch.hardware.ByteStreamConsoleView",1463251065298
activated,editor,org.eclipse.cdt.ui,5.1.1.200909110608,"org.eclipse.cdt.ui.editor.CEditor",1463251074613
executed,command,org.eclipse.ui,3.5.1.M20090902-1000,"org.eclipse.ui.file.save",1463251098007
deactivated,workbench,org.eclipse.ui.workbench,3.5.1.M20090826-0800a,"",1463251100405
