what,kind,bundleId,bundleVersion,description,time
error,log,,,"Connected system timestamp not found on target at expected base address.",1463256180800
error,log,,,"SOPC design not set.",1463256180800
error,log,,,"CPU module not set.",1463256180801
error,log,,,"The SOPC design does not contain a CPU of a supported architecture.",1463256180801
error,log,,,"CPU architecture type not set. ",1463256180801
error,log,,,"CPU master group not set.",1463256180801
error,log,,,"Connected system ID hash not found on target at expected base address.",1463256180802
error,log,,,"Connected system timestamp not found on target at expected base address.",1463256180802
error,log,,,"SOPC design not set.",1463256180802
error,log,,,"CPU module not set.",1463256180802
error,log,,,"The SOPC design does not contain a CPU of a supported architecture.",1463256180803
error,log,,,"CPU architecture type not set. ",1463256180803
error,log,,,"CPU master group not set.",1463256180803
error,log,,,"Connected system ID hash not found on target at expected base address.",1463256180803
error,log,,,"Connected system timestamp not found on target at expected base address.",1463256180804
started,bundle,com.altera.debug.cdi.gdb.plugin,10.1.0.153,"com.altera.debug.cdi.gdb.plugin",1463256180814
error,log,,,"SOPC design not set.",1463256180837
error,log,,,"CPU module not set.",1463256180838
error,log,,,"The SOPC design does not contain a CPU of a supported architecture.",1463256180838
error,log,,,"CPU architecture type not set. ",1463256180838
error,log,,,"CPU master group not set.",1463256180838
deactivated,workbench,org.eclipse.ui.workbench,3.5.1.M20090826-0800a,"",1463256180920
error,log,,,"Target is broken and needs to be reset",1463256181912
error,log,,,"SOPC design not set.",1463256181960
error,log,,,"CPU module not set.",1463256181961
