what,kind,bundleId,bundleVersion,description,time
error,log,,,"CPU master group not set.",1464640557413
error,log,,,"Connected system ID hash not found on target at expected base address.",1464640557413
error,log,,,"Connected system timestamp not found on target at expected base address.",1464640557414
error,log,,,"SOPC design not set.",1464640557414
error,log,,,"CPU module not set.",1464640557414
error,log,,,"The SOPC design does not contain a CPU of a supported architecture.",1464640557414
error,log,,,"CPU architecture type not set. ",1464640557415
error,log,,,"CPU master group not set.",1464640557415
error,log,,,"Connected system ID hash not found on target at expected base address.",1464640557415
error,log,,,"Connected system timestamp not found on target at expected base address.",1464640557415
error,log,,,"SOPC design not set.",1464640557416
error,log,,,"CPU module not set.",1464640557416
error,log,,,"The SOPC design does not contain a CPU of a supported architecture.",1464640557416
error,log,,,"CPU architecture type not set. ",1464640557416
error,log,,,"CPU master group not set.",1464640557416
error,log,,,"Connected system ID hash not found on target at expected base address.",1464640557417
error,log,,,"Connected system timestamp not found on target at expected base address.",1464640557417
error,log,,,"SOPC design not set.",1464640557417
error,log,,,"CPU module not set.",1464640557417
error,log,,,"The SOPC design does not contain a CPU of a supported architecture.",1464640557418
error,log,,,"CPU architecture type not set. ",1464640557418
error,log,,,"CPU master group not set.",1464640557418
error,log,,,"Connected system ID hash not found on target at expected base address.",1464640557418
error,log,,,"Connected system timestamp not found on target at expected base address.",1464640557419
error,log,,,"SOPC design not set.",1464640557453
