what,kind,bundleId,bundleVersion,description,time
error,log,,,"CPU architecture type not set. ",1463257532659
error,log,,,"CPU master group not set.",1463257532659
error,log,,,"SOPC design not set.",1463257532762
error,log,,,"CPU module not set.",1463257532763
error,log,,,"The SOPC design does not contain a CPU of a supported architecture.",1463257532763
error,log,,,"CPU architecture type not set. ",1463257532763
error,log,,,"CPU master group not set.",1463257532764
activated,view,com.altera.sbtgui.launch,10.1.1.153,"com.altera.sbtgui.launch.hardware.ByteStreamConsoleView",1463257532877
activated,view,org.eclipse.ui.console,3.4.0.v20090513,"org.eclipse.ui.console.ConsoleView",1463257536525
activated,view,com.altera.sbtgui.launch,10.1.1.153,"com.altera.sbtgui.launch.hardware.ByteStreamConsoleView",1463257542535
activated,editor,org.eclipse.cdt.ui,5.1.1.200909110608,"org.eclipse.cdt.ui.editor.CEditor",1463257552988
executed,command,org.eclipse.ui,3.5.1.M20090902-1000,"org.eclipse.ui.file.save",1463257555440
executed,command,org.eclipse.cdt.ui,5.1.1.200909110608,"org.eclipse.cdt.ui.edit.text.c.toggle.comment",1463257568904
executed,command,org.eclipse.ui,3.5.1.M20090902-1000,"org.eclipse.ui.file.save",1463257569915
deactivated,workbench,org.eclipse.ui.workbench,3.5.1.M20090826-0800a,"",1463257660458
activated,workbench,org.eclipse.ui.workbench,3.5.1.M20090826-0800a,"",1463257660989
deactivated,workbench,org.eclipse.ui.workbench,3.5.1.M20090826-0800a,"",1463257685843
activated,workbench,org.eclipse.ui.workbench,3.5.1.M20090826-0800a,"",1463257686711
executed,command,org.eclipse.ui,3.5.1.M20090902-1000,"org.eclipse.ui.file.save",1463257809744
activated,view,com.altera.sbtgui.launch,10.1.1.153,"com.altera.sbtgui.launch.hardware.ByteStreamConsoleView",1463257810783
activated,editor,org.eclipse.cdt.ui,5.1.1.200909110608,"org.eclipse.cdt.ui.editor.CEditor",1463257822128
executed,command,org.eclipse.cdt.ui,5.1.1.200909110608,"org.eclipse.cdt.ui.edit.text.c.toggle.comment",1463257857329
executed,command,org.eclipse.ui.workbench.texteditor,3.5.0.v20090603,"org.eclipse.ui.edit.text.goto.lineStart",1463257862171
executed,command,org.eclipse.cdt.ui,5.1.1.200909110608,"org.eclipse.cdt.ui.edit.text.c.toggle.comment",1463257864047
executed,command,org.eclipse.cdt.ui,5.1.1.200909110608,"org.eclipse.cdt.ui.edit.text.c.toggle.comment",1463257866518
