what,kind,bundleId,bundleVersion,description,time
activated,workbench,org.eclipse.ui.workbench,3.5.1.M20090826-0800a,"",1464642407969
error,log,,,"SOPC design not set.",1464642408007
error,log,,,"CPU module not set.",1464642408007
error,log,,,"The SOPC design does not contain a CPU of a supported architecture.",1464642408008
error,log,,,"CPU architecture type not set. ",1464642408008
error,log,,,"CPU master group not set.",1464642408008
error,log,,,"SOPC design not set.",1464642408146
error,log,,,"CPU module not set.",1464642408147
error,log,,,"The SOPC design does not contain a CPU of a supported architecture.",1464642408147
error,log,,,"CPU architecture type not set. ",1464642408147
error,log,,,"CPU master group not set.",1464642408148
activated,view,com.altera.sbtgui.launch,10.1.1.153,"com.altera.sbtgui.launch.hardware.ByteStreamConsoleView",1464642409312
activated,view,org.eclipse.ui.console,3.4.0.v20090513,"org.eclipse.ui.console.ConsoleView",1464642411843
activated,view,com.altera.sbtgui.launch,10.1.1.153,"com.altera.sbtgui.launch.hardware.ByteStreamConsoleView",1464642418059
activated,editor,org.eclipse.cdt.ui,5.1.1.200909110608,"org.eclipse.cdt.ui.editor.CEditor",1464642438759
deactivated,workbench,org.eclipse.ui.workbench,3.5.1.M20090826-0800a,"",1464642458432
activated,workbench,org.eclipse.ui.workbench,3.5.1.M20090826-0800a,"",1464642491613
deactivated,workbench,org.eclipse.ui.workbench,3.5.1.M20090826-0800a,"",1464642558454
activated,workbench,org.eclipse.ui.workbench,3.5.1.M20090826-0800a,"",1464642559584
deactivated,workbench,org.eclipse.ui.workbench,3.5.1.M20090826-0800a,"",1464642559600
activated,workbench,org.eclipse.ui.workbench,3.5.1.M20090826-0800a,"",1464642561639
deactivated,workbench,org.eclipse.ui.workbench,3.5.1.M20090826-0800a,"",1464642562892
activated,workbench,org.eclipse.ui.workbench,3.5.1.M20090826-0800a,"",1464642569519
deactivated,workbench,org.eclipse.ui.workbench,3.5.1.M20090826-0800a,"",1464642573196
activated,workbench,org.eclipse.ui.workbench,3.5.1.M20090826-0800a,"",1464642573788
