what,kind,bundleId,bundleVersion,description,time
executed,command,org.eclipse.ui,3.5.1.M20090902-1000,"org.eclipse.ui.file.save",1464204650852
executed,command,,,"AUTOGEN:::org.eclipse.ui.texteditor.ruler.actions/org.eclipse.cdt.internal.ui.text.correction.CSelectRulerAction",1464204653184
executed,command,org.eclipse.ui,3.5.1.M20090902-1000,"org.eclipse.ui.edit.undo",1464204659736
executed,command,org.eclipse.ui,3.5.1.M20090902-1000,"org.eclipse.ui.edit.undo",1464204662832
executed,command,org.eclipse.ui,3.5.1.M20090902-1000,"org.eclipse.ui.edit.undo",1464204663401
executed,command,org.eclipse.ui,3.5.1.M20090902-1000,"org.eclipse.ui.edit.delete",1464204713333
started,bundle,org.eclipse.compare,3.5.0.I20090514-0808,"org.eclipse.compare",1464204715435
deactivated,workbench,org.eclipse.ui.workbench,3.5.1.M20090826-0800a,"",1464204811405
activated,workbench,org.eclipse.ui.workbench,3.5.1.M20090826-0800a,"",1464204811541
executed,command,org.eclipse.ui,3.5.1.M20090902-1000,"org.eclipse.ui.edit.delete",1464204840283
executed,command,org.eclipse.ui,3.5.1.M20090902-1000,"org.eclipse.ui.file.save",1464204842786
executed,command,org.eclipse.ui.ide,3.5.1.M20090826-0800,"org.eclipse.ui.project.buildAll",1464204850475
deactivated,workbench,org.eclipse.ui.workbench,3.5.1.M20090826-0800a,"",1464204850763
error,log,,,"Error",1464204852219
activated,workbench,org.eclipse.ui.workbench,3.5.1.M20090826-0800a,"",1464204852460
executed,command,org.eclipse.ui,3.5.1.M20090902-1000,"org.eclipse.ui.file.save",1464204862676
executed,command,org.eclipse.ui.ide,3.5.1.M20090826-0800,"org.eclipse.ui.project.buildAll",1464204877387
deactivated,workbench,org.eclipse.ui.workbench,3.5.1.M20090826-0800a,"",1464204877668
activated,workbench,org.eclipse.ui.workbench,3.5.1.M20090826-0800a,"",1464204882939
deactivated,workbench,org.eclipse.ui.workbench,3.5.1.M20090826-0800a,"",1464204882951
activated,workbench,org.eclipse.ui.workbench,3.5.1.M20090826-0800a,"",1464204886423
activated,view,org.eclipse.ui.navigator.resources,3.4.1.M20090826-0800,"org.eclipse.ui.navigator.ProjectExplorer",1464204896359
deactivated,workbench,org.eclipse.ui.workbench,3.5.1.M20090826-0800a,"",1464204899734
activated,workbench,org.eclipse.ui.workbench,3.5.1.M20090826-0800a,"",1464204901795
executed,command,,,"com.altera.sbtgui.launch.hardware.Nios2HardwareLaunchShortcut.run",1464204902741
