what,kind,bundleId,bundleVersion,description,time
executed,command,org.eclipse.ui,3.5.1.M20090902-1000,"org.eclipse.ui.file.save",1463255253954
deactivated,workbench,org.eclipse.ui.workbench,3.5.1.M20090826-0800a,"",1463255258473
activated,workbench,org.eclipse.ui.workbench,3.5.1.M20090826-0800a,"",1463255260056
deactivated,workbench,org.eclipse.ui.workbench,3.5.1.M20090826-0800a,"",1463255260073
activated,workbench,org.eclipse.ui.workbench,3.5.1.M20090826-0800a,"",1463255263874
deactivated,workbench,org.eclipse.ui.workbench,3.5.1.M20090826-0800a,"",1463255266490
activated,workbench,org.eclipse.ui.workbench,3.5.1.M20090826-0800a,"",1463255267041
error,log,,,"SOPC design not set.",1463255267080
error,log,,,"CPU module not set.",1463255267082
error,log,,,"The SOPC design does not contain a CPU of a supported architecture.",1463255267084
error,log,,,"CPU architecture type not set. ",1463255267085
error,log,,,"CPU master group not set.",1463255267086
error,log,,,"Target is broken and needs to be reset",1463255268114
error,log,,,"SOPC design not set.",1463255268163
error,log,,,"CPU module not set.",1463255268163
error,log,,,"The SOPC design does not contain a CPU of a supported architecture.",1463255268163
error,log,,,"CPU architecture type not set. ",1463255268163
error,log,,,"CPU master group not set.",1463255268164
error,log,,,"Connected system ID hash not found on target at expected base address.",1463255268164
error,log,,,"Connected system timestamp not found on target at expected base address.",1463255268164
error,log,,,"Connected system ID hash not found on target at expected base address.",1463255268230
error,log,,,"Connected system timestamp not found on target at expected base address.",1463255268230
error,log,,,"Connected system ID hash not found on target at expected base address.",1463255268330
error,log,,,"Connected system timestamp not found on target at expected base address.",1463255268331
error,log,,,"Connected system ID hash not found on target at expected base address.",1463255268431
