what,kind,bundleId,bundleVersion,description,time
executed,command,org.eclipse.ui.ide,3.5.1.M20090826-0800,"org.eclipse.ui.project.buildAll",1464811360457
deactivated,workbench,org.eclipse.ui.workbench,3.5.1.M20090826-0800a,"",1464811360734
activated,workbench,org.eclipse.ui.workbench,3.5.1.M20090826-0800a,"",1464811362125
deactivated,workbench,org.eclipse.ui.workbench,3.5.1.M20090826-0800a,"",1464811365329
activated,workbench,org.eclipse.ui.workbench,3.5.1.M20090826-0800a,"",1464811368888
deactivated,workbench,org.eclipse.ui.workbench,3.5.1.M20090826-0800a,"",1464811372418
activated,workbench,org.eclipse.ui.workbench,3.5.1.M20090826-0800a,"",1464811375214
deactivated,workbench,org.eclipse.ui.workbench,3.5.1.M20090826-0800a,"",1464811378787
activated,workbench,org.eclipse.ui.workbench,3.5.1.M20090826-0800a,"",1464811379435
error,log,,,"SOPC design not set.",1464811379499
error,log,,,"CPU module not set.",1464811379501
error,log,,,"The SOPC design does not contain a CPU of a supported architecture.",1464811379503
error,log,,,"CPU architecture type not set. ",1464811379503
error,log,,,"CPU master group not set.",1464811379504
error,log,,,"SOPC design not set.",1464811379570
error,log,,,"CPU module not set.",1464811379571
error,log,,,"The SOPC design does not contain a CPU of a supported architecture.",1464811379571
error,log,,,"CPU architecture type not set. ",1464811379571
error,log,,,"CPU master group not set.",1464811379571
activated,view,com.altera.sbtgui.launch,10.1.1.153,"com.altera.sbtgui.launch.hardware.ByteStreamConsoleView",1464811379683
activated,view,org.eclipse.ui.console,3.4.0.v20090513,"org.eclipse.ui.console.ConsoleView",1464811383468
activated,view,com.altera.sbtgui.launch,10.1.1.153,"com.altera.sbtgui.launch.hardware.ByteStreamConsoleView",1464811389790
activated,editor,org.eclipse.cdt.ui,5.1.1.200909110608,"org.eclipse.cdt.ui.editor.CEditor",1464811419525
activated,view,com.altera.sbtgui.launch,10.1.1.153,"com.altera.sbtgui.launch.hardware.ByteStreamConsoleView",1464811657930
deactivated,workbench,org.eclipse.ui.workbench,3.5.1.M20090826-0800a,"",1464811659974
