what,kind,bundleId,bundleVersion,description,time
error,log,,,"System timestamp mismatch - connected: ""1464639548"", expected: ""1464210985"".",1464640296827
error,log,,,"System timestamp mismatch - connected: ""1464639548"", expected: ""1464210985"".",1464640296827
error,log,,,"SOPC design not set.",1464640296884
error,log,,,"CPU module not set.",1464640296884
error,log,,,"The SOPC design does not contain a CPU of a supported architecture.",1464640296885
error,log,,,"CPU architecture type not set. ",1464640296885
error,log,,,"CPU master group not set.",1464640296885
error,log,,,"SOPC design not set.",1464640296886
error,log,,,"CPU module not set.",1464640296886
error,log,,,"The SOPC design does not contain a CPU of a supported architecture.",1464640296886
error,log,,,"CPU architecture type not set. ",1464640296886
error,log,,,"CPU master group not set.",1464640296887
error,log,,,"Expected base address of system ID component is undefined.",1464640296887
error,log,,,"SOPC design not set.",1464640296887
error,log,,,"CPU module not set.",1464640296887
error,log,,,"The SOPC design does not contain a CPU of a supported architecture.",1464640296888
error,log,,,"CPU architecture type not set. ",1464640296888
error,log,,,"CPU master group not set.",1464640296888
error,log,,,"Expected base address of system ID component is undefined.",1464640296888
error,log,,,"SOPC design not set.",1464640296889
error,log,,,"CPU module not set.",1464640296889
error,log,,,"The SOPC design does not contain a CPU of a supported architecture.",1464640296889
error,log,,,"CPU architecture type not set. ",1464640296889
error,log,,,"CPU master group not set.",1464640296890
error,log,,,"Expected base address of system ID component is undefined.",1464640296890
