what,kind,bundleId,bundleVersion,description,time
error,log,,,"The SOPC design does not contain a CPU of a supported architecture.",1463249025381
error,log,,,"CPU architecture type not set. ",1463249025384
error,log,,,"CPU master group not set.",1463249025384
error,log,,,"SOPC design not set.",1463249025498
error,log,,,"CPU module not set.",1463249025499
error,log,,,"The SOPC design does not contain a CPU of a supported architecture.",1463249025499
error,log,,,"CPU architecture type not set. ",1463249025499
error,log,,,"CPU master group not set.",1463249025500
activated,view,com.altera.sbtgui.launch,10.1.1.153,"com.altera.sbtgui.launch.hardware.ByteStreamConsoleView",1463249025613
activated,view,org.eclipse.ui.console,3.4.0.v20090513,"org.eclipse.ui.console.ConsoleView",1463249029170
activated,view,com.altera.sbtgui.launch,10.1.1.153,"com.altera.sbtgui.launch.hardware.ByteStreamConsoleView",1463249035309
activated,editor,org.eclipse.cdt.ui,5.1.1.200909110608,"org.eclipse.cdt.ui.editor.CEditor",1463249049730
activated,view,com.altera.sbtgui.launch,10.1.1.153,"com.altera.sbtgui.launch.hardware.ByteStreamConsoleView",1463249057175
activated,editor,org.eclipse.cdt.ui,5.1.1.200909110608,"org.eclipse.cdt.ui.editor.CEditor",1463249086310
executed,command,org.eclipse.ui,3.5.1.M20090902-1000,"org.eclipse.ui.file.save",1463249096504
activated,view,org.eclipse.ui.navigator.resources,3.4.1.M20090826-0800,"org.eclipse.ui.navigator.ProjectExplorer",1463249101298
executed,command,org.eclipse.ui.ide,3.5.1.M20090826-0800,"org.eclipse.ui.project.buildProject",1463249102551
deactivated,workbench,org.eclipse.ui.workbench,3.5.1.M20090826-0800a,"",1463249102847
activated,workbench,org.eclipse.ui.workbench,3.5.1.M20090826-0800a,"",1463249106315
deactivated,workbench,org.eclipse.ui.workbench,3.5.1.M20090826-0800a,"",1463249112614
activated,workbench,org.eclipse.ui.workbench,3.5.1.M20090826-0800a,"",1463249114578
executed,command,,,"com.altera.sbtgui.launch.hardware.Nios2HardwareLaunchShortcut.run",1463249115342
deactivated,workbench,org.eclipse.ui.workbench,3.5.1.M20090826-0800a,"",1463249117215
activated,workbench,org.eclipse.ui.workbench,3.5.1.M20090826-0800a,"",1463249117769
error,log,,,"SOPC design not set.",1463249117810
