what,kind,bundleId,bundleVersion,description,time
deactivated,workbench,org.eclipse.ui.workbench,3.5.1.M20090826-0800a,"",1464202612702
activated,workbench,org.eclipse.ui.workbench,3.5.1.M20090826-0800a,"",1464202613392
error,log,,,"SOPC design not set.",1464202613429
error,log,,,"CPU module not set.",1464202613431
error,log,,,"The SOPC design does not contain a CPU of a supported architecture.",1464202613433
error,log,,,"CPU architecture type not set. ",1464202613433
error,log,,,"CPU master group not set.",1464202613433
error,log,,,"SOPC design not set.",1464202613543
error,log,,,"CPU module not set.",1464202613544
error,log,,,"The SOPC design does not contain a CPU of a supported architecture.",1464202613544
error,log,,,"CPU architecture type not set. ",1464202613544
error,log,,,"CPU master group not set.",1464202613544
activated,view,com.altera.sbtgui.launch,10.1.1.153,"com.altera.sbtgui.launch.hardware.ByteStreamConsoleView",1464202613653
activated,view,org.eclipse.ui.console,3.4.0.v20090513,"org.eclipse.ui.console.ConsoleView",1464202617237
activated,view,com.altera.sbtgui.launch,10.1.1.153,"com.altera.sbtgui.launch.hardware.ByteStreamConsoleView",1464202623279
deactivated,workbench,org.eclipse.ui.workbench,3.5.1.M20090826-0800a,"",1464202632053
activated,workbench,org.eclipse.ui.workbench,3.5.1.M20090826-0800a,"",1464202632703
error,log,,,"SOPC design not set.",1464202632731
error,log,,,"CPU module not set.",1464202632733
error,log,,,"The SOPC design does not contain a CPU of a supported architecture.",1464202632735
error,log,,,"CPU architecture type not set. ",1464202632736
error,log,,,"CPU master group not set.",1464202632737
error,log,,,"SOPC design not set.",1464202632856
error,log,,,"CPU module not set.",1464202632857
error,log,,,"The SOPC design does not contain a CPU of a supported architecture.",1464202632857
