what,kind,bundleId,bundleVersion,description,time
activated,workbench,org.eclipse.ui.workbench,3.5.1.M20090826-0800a,"",1463240630581
activated,editor,org.eclipse.cdt.ui,5.1.1.200909110608,"org.eclipse.cdt.ui.editor.CEditor",1463240633697
executed,command,org.eclipse.ui.workbench.texteditor,3.5.0.v20090603,"org.eclipse.ui.edit.text.goto.wordNext",1463240668498
executed,command,org.eclipse.ui.workbench.texteditor,3.5.0.v20090603,"org.eclipse.ui.edit.text.goto.wordNext",1463240669055
executed,command,org.eclipse.ui.workbench.texteditor,3.5.0.v20090603,"org.eclipse.ui.edit.text.goto.lineEnd",1463240671368
executed,command,org.eclipse.ui.workbench.texteditor,3.5.0.v20090603,"org.eclipse.ui.edit.text.shiftLeft",1463240685631
executed,command,org.eclipse.ui,3.5.1.M20090902-1000,"org.eclipse.ui.file.save",1463240687976
activated,view,org.eclipse.ui.navigator.resources,3.4.1.M20090826-0800,"org.eclipse.ui.navigator.ProjectExplorer",1463240692457
executed,command,org.eclipse.ui.ide,3.5.1.M20090826-0800,"org.eclipse.ui.project.buildProject",1463240696574
deactivated,workbench,org.eclipse.ui.workbench,3.5.1.M20090826-0800a,"",1463240696856
activated,workbench,org.eclipse.ui.workbench,3.5.1.M20090826-0800a,"",1463240757826
deactivated,workbench,org.eclipse.ui.workbench,3.5.1.M20090826-0800a,"",1463240765002
activated,workbench,org.eclipse.ui.workbench,3.5.1.M20090826-0800a,"",1463240795685
executed,command,,,"com.altera.sbtgui.launch.hardware.Nios2HardwareLaunchShortcut.run",1463240796641
deactivated,workbench,org.eclipse.ui.workbench,3.5.1.M20090826-0800a,"",1463240827806
activated,workbench,org.eclipse.ui.workbench,3.5.1.M20090826-0800a,"",1463240828491
error,log,,,"SOPC design not set.",1463240828513
error,log,,,"CPU module not set.",1463240828517
error,log,,,"The SOPC design does not contain a CPU of a supported architecture.",1463240828521
error,log,,,"CPU architecture type not set. ",1463240828525
error,log,,,"CPU master group not set.",1463240828529
error,log,,,"SOPC design not set.",1463240828649
error,log,,,"CPU module not set.",1463240828652
error,log,,,"The SOPC design does not contain a CPU of a supported architecture.",1463240828655
error,log,,,"CPU architecture type not set. ",1463240828657
