what,kind,bundleId,bundleVersion,description,time
error,log,,,"CPU architecture type not set. ",1464639165714
error,log,,,"CPU master group not set.",1464639165714
error,log,,,"SOPC design not set.",1464639165819
error,log,,,"CPU module not set.",1464639165819
error,log,,,"The SOPC design does not contain a CPU of a supported architecture.",1464639165820
error,log,,,"CPU architecture type not set. ",1464639165820
error,log,,,"CPU master group not set.",1464639165820
error,log,,,"SOPC design not set.",1464639165821
error,log,,,"CPU module not set.",1464639165822
error,log,,,"The SOPC design does not contain a CPU of a supported architecture.",1464639165822
error,log,,,"CPU architecture type not set. ",1464639165822
error,log,,,"CPU master group not set.",1464639165823
error,log,,,"SOPC design not set.",1464639165823
error,log,,,"CPU module not set.",1464639165824
error,log,,,"The SOPC design does not contain a CPU of a supported architecture.",1464639165824
error,log,,,"CPU architecture type not set. ",1464639165824
error,log,,,"CPU master group not set.",1464639165824
error,log,,,"SOPC design not set.",1464639165853
error,log,,,"CPU module not set.",1464639165853
error,log,,,"The SOPC design does not contain a CPU of a supported architecture.",1464639165853
error,log,,,"CPU architecture type not set. ",1464639165853
error,log,,,"CPU master group not set.",1464639165854
error,log,,,"System timestamp mismatch - connected: ""1462902040"", expected: ""1462407791"".",1464639165854
error,log,,,"System timestamp mismatch - connected: ""1462902040"", expected: ""1462407791"".",1464639165925
error,log,,,"System timestamp mismatch - connected: ""1462902040"", expected: ""1462407791"".",1464639166025
