what,kind,bundleId,bundleVersion,description,time
error,log,,,"Expected base address of system ID component is undefined.",1464640224761
error,log,,,"SOPC design not set.",1464640225801
error,log,,,"CPU module not set.",1464640225803
error,log,,,"The SOPC design does not contain a CPU of a supported architecture.",1464640225803
error,log,,,"CPU architecture type not set. ",1464640225803
error,log,,,"CPU master group not set.",1464640225804
error,log,,,"Expected base address of system ID component is undefined.",1464640225804
error,log,,,"SOPC design not set.",1464640225805
error,log,,,"CPU module not set.",1464640225805
error,log,,,"The SOPC design does not contain a CPU of a supported architecture.",1464640225805
error,log,,,"CPU architecture type not set. ",1464640225806
error,log,,,"CPU master group not set.",1464640225806
error,log,,,"Connected system ID hash not found on target at expected base address.",1464640225806
error,log,,,"Connected system timestamp not found on target at expected base address.",1464640225806
error,log,,,"SOPC design not set.",1464640225807
error,log,,,"CPU module not set.",1464640225807
error,log,,,"The SOPC design does not contain a CPU of a supported architecture.",1464640225807
error,log,,,"CPU architecture type not set. ",1464640225807
error,log,,,"CPU master group not set.",1464640225808
error,log,,,"Connected system ID hash not found on target at expected base address.",1464640225808
error,log,,,"Connected system timestamp not found on target at expected base address.",1464640225808
error,log,,,"SOPC design not set.",1464640225808
error,log,,,"CPU module not set.",1464640225809
error,log,,,"The SOPC design does not contain a CPU of a supported architecture.",1464640225809
error,log,,,"CPU architecture type not set. ",1464640225809
