what,kind,bundleId,bundleVersion,description,time
activated,workbench,org.eclipse.ui.workbench,3.5.1.M20090826-0800a,"",1463250854510
executed,command,,,"com.altera.sbtgui.launch.hardware.Nios2HardwareLaunchShortcut.run",1463250855326
deactivated,workbench,org.eclipse.ui.workbench,3.5.1.M20090826-0800a,"",1463250857055
activated,workbench,org.eclipse.ui.workbench,3.5.1.M20090826-0800a,"",1463250857590
error,log,,,"SOPC design not set.",1463250857624
error,log,,,"CPU module not set.",1463250857627
error,log,,,"The SOPC design does not contain a CPU of a supported architecture.",1463250857630
error,log,,,"CPU architecture type not set. ",1463250857630
error,log,,,"CPU master group not set.",1463250857630
error,log,,,"SOPC design not set.",1463250857763
error,log,,,"CPU module not set.",1463250857764
error,log,,,"The SOPC design does not contain a CPU of a supported architecture.",1463250857764
error,log,,,"CPU architecture type not set. ",1463250857764
error,log,,,"CPU master group not set.",1463250857764
activated,view,com.altera.sbtgui.launch,10.1.1.153,"com.altera.sbtgui.launch.hardware.ByteStreamConsoleView",1463250858916
activated,view,org.eclipse.ui.console,3.4.0.v20090513,"org.eclipse.ui.console.ConsoleView",1463250861529
activated,view,com.altera.sbtgui.launch,10.1.1.153,"com.altera.sbtgui.launch.hardware.ByteStreamConsoleView",1463250867851
activated,editor,org.eclipse.cdt.ui,5.1.1.200909110608,"org.eclipse.cdt.ui.editor.CEditor",1463250882244
executed,command,org.eclipse.ui,3.5.1.M20090902-1000,"org.eclipse.ui.file.save",1463250891783
activated,view,org.eclipse.ui.navigator.resources,3.4.1.M20090826-0800,"org.eclipse.ui.navigator.ProjectExplorer",1463250892970
executed,command,org.eclipse.ui.ide,3.5.1.M20090826-0800,"org.eclipse.ui.project.buildProject",1463250894919
deactivated,workbench,org.eclipse.ui.workbench,3.5.1.M20090826-0800a,"",1463250895210
activated,workbench,org.eclipse.ui.workbench,3.5.1.M20090826-0800a,"",1463250898557
deactivated,workbench,org.eclipse.ui.workbench,3.5.1.M20090826-0800a,"",1463250903406
activated,workbench,org.eclipse.ui.workbench,3.5.1.M20090826-0800a,"",1463250905440
