what,kind,bundleId,bundleVersion,description,time
error,log,,,"CPU master group not set.",1463252075767
activated,view,com.altera.sbtgui.launch,10.1.1.153,"com.altera.sbtgui.launch.hardware.ByteStreamConsoleView",1463252075879
activated,view,org.eclipse.ui.console,3.4.0.v20090513,"org.eclipse.ui.console.ConsoleView",1463252079794
activated,view,com.altera.sbtgui.launch,10.1.1.153,"com.altera.sbtgui.launch.hardware.ByteStreamConsoleView",1463252085797
activated,editor,org.eclipse.cdt.ui,5.1.1.200909110608,"org.eclipse.cdt.ui.editor.CEditor",1463252114297
executed,command,org.eclipse.ui,3.5.1.M20090902-1000,"org.eclipse.ui.edit.delete",1463252122061
executed,command,org.eclipse.ui,3.5.1.M20090902-1000,"org.eclipse.ui.edit.delete",1463252129315
executed,command,org.eclipse.ui,3.5.1.M20090902-1000,"org.eclipse.ui.edit.selectAll",1463252227679
executed,command,org.eclipse.ui,3.5.1.M20090902-1000,"org.eclipse.ui.edit.copy",1463252228489
deactivated,workbench,org.eclipse.ui.workbench,3.5.1.M20090826-0800a,"",1463252231197
activated,view,com.altera.sbtgui.launch,10.1.1.153,"com.altera.sbtgui.launch.hardware.ByteStreamConsoleView",1463252276421
activated,workbench,org.eclipse.ui.workbench,3.5.1.M20090826-0800a,"",1463252276472
activated,editor,org.eclipse.cdt.ui,5.1.1.200909110608,"org.eclipse.cdt.ui.editor.CEditor",1463252276482
executed,command,org.eclipse.ui,3.5.1.M20090902-1000,"org.eclipse.ui.edit.copy",1463252322080
executed,command,org.eclipse.ui,3.5.1.M20090902-1000,"org.eclipse.ui.edit.copy",1463252334818
deactivated,workbench,org.eclipse.ui.workbench,3.5.1.M20090826-0800a,"",1463252354271
activated,workbench,org.eclipse.ui.workbench,3.5.1.M20090826-0800a,"",1463252359447
deactivated,workbench,org.eclipse.ui.workbench,3.5.1.M20090826-0800a,"",1463252402884
activated,workbench,org.eclipse.ui.workbench,3.5.1.M20090826-0800a,"",1463252436995
deactivated,workbench,org.eclipse.ui.workbench,3.5.1.M20090826-0800a,"",1463252549489
activated,workbench,org.eclipse.ui.workbench,3.5.1.M20090826-0800a,"",1463252557664
deactivated,workbench,org.eclipse.ui.workbench,3.5.1.M20090826-0800a,"",1463252561930
activated,workbench,org.eclipse.ui.workbench,3.5.1.M20090826-0800a,"",1463252568146
deactivated,workbench,org.eclipse.ui.workbench,3.5.1.M20090826-0800a,"",1463252581244
activated,workbench,org.eclipse.ui.workbench,3.5.1.M20090826-0800a,"",1463252642707
