what,kind,bundleId,bundleVersion,description,time
stopped,bundle,org.eclipse.compare.win32,1.0.0.I20090430-0408,"org.eclipse.compare.win32",1463255507424
stopped,bundle,org.eclipse.mylyn.bugzilla.ui,3.2.2.v20090912-0400-e3x,"org.eclipse.mylyn.bugzilla.ui",1463255507424
stopped,bundle,org.eclipse.mylyn.ide.ui,3.2.2.v20090912-0400-e3x,"org.eclipse.mylyn.ide.ui",1463255507425
stopped,bundle,org.eclipse.mylyn.team.ui,3.2.2.v20090912-0400-e3x,"org.eclipse.mylyn.team.ui",1463255507425
stopped,bundle,org.eclipse.mylyn.resources.ui,3.2.2.v20090912-0400-e3x,"org.eclipse.mylyn.resources.ui",1463255507425
stopped,bundle,org.eclipse.mylyn.wikitext.tasks.ui,1.1.2.v20090912-0400-e3x,"org.eclipse.mylyn.wikitext.tasks.ui",1463255507426
stopped,bundle,org.eclipse.mylyn.context.ui,3.2.2.v20090912-0400-e3x,"org.eclipse.mylyn.context.ui",1463255507426
stopped,bundle,org.eclipse.mylyn.help.ui,3.2.2.v20090912-0400-e3x,"org.eclipse.mylyn.help.ui",1463255507426
stopped,bundle,org.eclipse.mylyn.tasks.bugs,3.2.2.v20090912-0400-e3x,"org.eclipse.mylyn.tasks.bugs",1463255507427
stopped,bundle,org.eclipse.mylyn.tasks.ui,3.2.2.v20090912-0400-e3x,"org.eclipse.mylyn.tasks.ui",1463255507427
stopped,bundle,org.eclipse.search,3.5.1.r351_v20090708-0800,"org.eclipse.search",1463255507430
stopped,bundle,org.eclipse.ltk.ui.refactoring,3.4.100.v20090604,"org.eclipse.ltk.ui.refactoring",1463255507431
stopped,bundle,org.eclipse.team.cvs.ui,3.3.201.R35x_v20090826-0905,"org.eclipse.team.cvs.ui",1463255507431
stopped,bundle,org.eclipse.team.ui,3.5.0.I20090430-0408,"org.eclipse.team.ui",1463255507432
stopped,bundle,org.eclipse.compare,3.5.0.I20090514-0808,"org.eclipse.compare",1463255507432
stopped,bundle,org.eclipse.ui.externaltools,3.2.0.v20090504,"org.eclipse.ui.externaltools",1463255507433
stopped,bundle,org.eclipse.debug.ui,3.5.1.v20090811_r351,"org.eclipse.debug.ui",1463255507437
stopped,bundle,org.eclipse.mylyn.wikitext.ui,1.1.2.v20090912-0400-e3x,"org.eclipse.mylyn.wikitext.ui",1463255507438
stopped,bundle,org.eclipse.ui.console,3.4.0.v20090513,"org.eclipse.ui.console",1463255507438
stopped,bundle,org.eclipse.mylyn.commons.ui,3.2.2.v20090912-0400-e3x,"org.eclipse.mylyn.commons.ui",1463255507438
stopped,bundle,org.eclipse.ui.editors,3.5.0.v20090527-2000,"org.eclipse.ui.editors",1463255507438
stopped,bundle,org.eclipse.ui.navigator.resources,3.4.1.M20090826-0800,"org.eclipse.ui.navigator.resources",1463255507438
stopped,bundle,org.eclipse.ui.workbench.texteditor,3.5.0.v20090603,"org.eclipse.ui.workbench.texteditor",1463255507438
