what,kind,bundleId,bundleVersion,description,time
error,log,,,"SOPC design not set.",1463256178377
error,log,,,"CPU module not set.",1463256178377
error,log,,,"The SOPC design does not contain a CPU of a supported architecture.",1463256178377
error,log,,,"CPU architecture type not set. ",1463256178378
error,log,,,"CPU master group not set.",1463256178378
error,log,,,"Expected base address of system ID component is undefined.",1463256178378
error,log,,,"SOPC design not set.",1463256180791
error,log,,,"CPU module not set.",1463256180792
error,log,,,"The SOPC design does not contain a CPU of a supported architecture.",1463256180792
error,log,,,"CPU architecture type not set. ",1463256180795
error,log,,,"CPU master group not set.",1463256180795
error,log,,,"Expected base address of system ID component is undefined.",1463256180795
error,log,,,"SOPC design not set.",1463256180797
error,log,,,"CPU module not set.",1463256180797
error,log,,,"The SOPC design does not contain a CPU of a supported architecture.",1463256180797
error,log,,,"CPU architecture type not set. ",1463256180797
error,log,,,"CPU master group not set.",1463256180798
error,log,,,"Connected system ID hash not found on target at expected base address.",1463256180798
error,log,,,"Connected system timestamp not found on target at expected base address.",1463256180798
error,log,,,"SOPC design not set.",1463256180799
error,log,,,"CPU module not set.",1463256180799
error,log,,,"The SOPC design does not contain a CPU of a supported architecture.",1463256180799
error,log,,,"CPU architecture type not set. ",1463256180799
error,log,,,"CPU master group not set.",1463256180800
error,log,,,"Connected system ID hash not found on target at expected base address.",1463256180800
