what,kind,bundleId,bundleVersion,description,time
error,log,,,"Connected system timestamp not found on target at expected base address.",1463248721345
error,log,,,"Connected system ID hash not found on target at expected base address.",1463248721445
error,log,,,"Connected system timestamp not found on target at expected base address.",1463248721445
error,log,,,"Connected system ID hash not found on target at expected base address.",1463248721545
error,log,,,"Connected system timestamp not found on target at expected base address.",1463248721545
error,log,,,"Connected system ID hash not found on target at expected base address.",1463248721646
error,log,,,"Connected system timestamp not found on target at expected base address.",1463248721646
error,log,,,"Connected system ID hash not found on target at expected base address.",1463248721746
error,log,,,"Connected system timestamp not found on target at expected base address.",1463248721747
error,log,,,"Connected system ID hash not found on target at expected base address.",1463248721847
error,log,,,"Connected system timestamp not found on target at expected base address.",1463248721848
error,log,,,"Connected system ID hash not found on target at expected base address.",1463248721948
error,log,,,"Connected system timestamp not found on target at expected base address.",1463248721949
error,log,,,"Connected system ID hash not found on target at expected base address.",1463248722049
error,log,,,"Connected system timestamp not found on target at expected base address.",1463248722049
error,log,,,"Connected system ID hash not found on target at expected base address.",1463248722149
error,log,,,"Connected system timestamp not found on target at expected base address.",1463248722150
error,log,,,"Connected system ID hash not found on target at expected base address.",1463248722250
error,log,,,"Connected system timestamp not found on target at expected base address.",1463248722250
error,log,,,"Connected system ID hash not found on target at expected base address.",1463248722351
error,log,,,"Connected system timestamp not found on target at expected base address.",1463248722351
error,log,,,"Connected system ID hash not found on target at expected base address.",1463248722454
error,log,,,"Connected system timestamp not found on target at expected base address.",1463248722454
error,log,,,"Connected system ID hash not found on target at expected base address.",1463248722554
error,log,,,"Connected system timestamp not found on target at expected base address.",1463248722554
