what,kind,bundleId,bundleVersion,description,time
error,log,,,"CPU architecture type not set. ",1463255387357
error,log,,,"CPU master group not set.",1463255387357
error,log,,,"SOPC design not set.",1463255387358
error,log,,,"CPU module not set.",1463255387358
error,log,,,"The SOPC design does not contain a CPU of a supported architecture.",1463255387358
error,log,,,"CPU architecture type not set. ",1463255387359
error,log,,,"CPU master group not set.",1463255387359
error,log,,,"SOPC design not set.",1463255387384
error,log,,,"CPU module not set.",1463255387385
error,log,,,"The SOPC design does not contain a CPU of a supported architecture.",1463255387385
error,log,,,"CPU architecture type not set. ",1463255387385
error,log,,,"CPU master group not set.",1463255387385
deactivated,workbench,org.eclipse.ui.workbench,3.5.1.M20090826-0800a,"",1463255387455
error,log,,,"Target is broken and needs to be reset",1463255388457
error,log,,,"SOPC design not set.",1463255388505
error,log,,,"CPU module not set.",1463255388506
error,log,,,"The SOPC design does not contain a CPU of a supported architecture.",1463255388506
error,log,,,"CPU architecture type not set. ",1463255388506
error,log,,,"CPU master group not set.",1463255388507
error,log,,,"Connected system ID hash not found on target at expected base address.",1463255388507
error,log,,,"Connected system timestamp not found on target at expected base address.",1463255388507
error,log,,,"Connected system ID hash not found on target at expected base address.",1463255388508
error,log,,,"Connected system timestamp not found on target at expected base address.",1463255388508
error,log,,,"Connected system ID hash not found on target at expected base address.",1463255388549
error,log,,,"Connected system timestamp not found on target at expected base address.",1463255388549
