what,kind,bundleId,bundleVersion,description,time
deactivated,workbench,org.eclipse.ui.workbench,3.5.1.M20090826-0800a,"",1463254406684
activated,workbench,org.eclipse.ui.workbench,3.5.1.M20090826-0800a,"",1463254407665
deactivated,workbench,org.eclipse.ui.workbench,3.5.1.M20090826-0800a,"",1463254409364
activated,workbench,org.eclipse.ui.workbench,3.5.1.M20090826-0800a,"",1463254410891
deactivated,workbench,org.eclipse.ui.workbench,3.5.1.M20090826-0800a,"",1463254410908
activated,workbench,org.eclipse.ui.workbench,3.5.1.M20090826-0800a,"",1463254412924
deactivated,workbench,org.eclipse.ui.workbench,3.5.1.M20090826-0800a,"",1463254414322
activated,workbench,org.eclipse.ui.workbench,3.5.1.M20090826-0800a,"",1463254416396
error,log,,,"SOPC design not set.",1463254416428
error,log,,,"CPU module not set.",1463254416430
error,log,,,"The SOPC design does not contain a CPU of a supported architecture.",1463254416433
error,log,,,"CPU architecture type not set. ",1463254416433
error,log,,,"CPU master group not set.",1463254416434
error,log,,,"SOPC design not set.",1463254416538
error,log,,,"CPU module not set.",1463254416539
error,log,,,"The SOPC design does not contain a CPU of a supported architecture.",1463254416539
error,log,,,"CPU architecture type not set. ",1463254416539
error,log,,,"CPU master group not set.",1463254416540
activated,view,com.altera.sbtgui.launch,10.1.1.153,"com.altera.sbtgui.launch.hardware.ByteStreamConsoleView",1463254416657
activated,view,org.eclipse.ui.console,3.4.0.v20090513,"org.eclipse.ui.console.ConsoleView",1463254420220
activated,editor,org.eclipse.cdt.ui,5.1.1.200909110608,"org.eclipse.cdt.ui.editor.CEditor",1463254422288
executed,command,org.eclipse.ui,3.5.1.M20090902-1000,"org.eclipse.ui.edit.cut",1463254425690
executed,command,org.eclipse.ui,3.5.1.M20090902-1000,"org.eclipse.ui.edit.paste",1463254428258
executed,command,org.eclipse.ui,3.5.1.M20090902-1000,"org.eclipse.ui.file.save",1463254431401
deactivated,workbench,org.eclipse.ui.workbench,3.5.1.M20090826-0800a,"",1463254433063
