what,kind,bundleId,bundleVersion,description,time
activated,workbench,org.eclipse.ui.workbench,3.5.1.M20090826-0800a,"",1463238802549
executed,command,org.eclipse.ui.ide,3.5.1.M20090826-0800,"org.eclipse.ui.project.buildAll",1463238893169
deactivated,workbench,org.eclipse.ui.workbench,3.5.1.M20090826-0800a,"",1463238893439
activated,workbench,org.eclipse.ui.workbench,3.5.1.M20090826-0800a,"",1463238954858
deactivated,workbench,org.eclipse.ui.workbench,3.5.1.M20090826-0800a,"",1463239046223
activated,workbench,org.eclipse.ui.workbench,3.5.1.M20090826-0800a,"",1463239080304
error,log,,,"SOPC design not set.",1463239080354
error,log,,,"CPU module not set.",1463239080357
error,log,,,"The SOPC design does not contain a CPU of a supported architecture.",1463239080359
error,log,,,"CPU architecture type not set. ",1463239080361
error,log,,,"CPU master group not set.",1463239080364
error,log,,,"SOPC design not set.",1463239080368
error,log,,,"CPU module not set.",1463239080371
error,log,,,"The SOPC design does not contain a CPU of a supported architecture.",1463239080373
error,log,,,"CPU architecture type not set. ",1463239080376
error,log,,,"CPU master group not set.",1463239080378
error,log,,,"SOPC design not set.",1463239080381
error,log,,,"CPU module not set.",1463239080384
error,log,,,"The SOPC design does not contain a CPU of a supported architecture.",1463239080386
error,log,,,"CPU architecture type not set. ",1463239080389
error,log,,,"CPU master group not set.",1463239080392
error,log,,,"Connected system ID hash not found on target at expected base address.",1463239080394
error,log,,,"Connected system timestamp not found on target at expected base address.",1463239080398
error,log,,,"SOPC design not set.",1463239080400
error,log,,,"CPU module not set.",1463239080404
