what,kind,bundleId,bundleVersion,description,time
error,log,,,"CPU architecture type not set. ",1464201261848
error,log,,,"CPU master group not set.",1464201261848
error,log,,,"SOPC design not set.",1464201261957
error,log,,,"CPU module not set.",1464201261958
error,log,,,"The SOPC design does not contain a CPU of a supported architecture.",1464201261958
error,log,,,"CPU architecture type not set. ",1464201261958
error,log,,,"CPU master group not set.",1464201261958
activated,view,com.altera.sbtgui.launch,10.1.1.153,"com.altera.sbtgui.launch.hardware.ByteStreamConsoleView",1464201262072
activated,view,org.eclipse.ui.console,3.4.0.v20090513,"org.eclipse.ui.console.ConsoleView",1464201265655
activated,view,com.altera.sbtgui.launch,10.1.1.153,"com.altera.sbtgui.launch.hardware.ByteStreamConsoleView",1464201271882
activated,editor,org.eclipse.cdt.ui,5.1.1.200909110608,"org.eclipse.cdt.ui.editor.CEditor",1464201299584
executed,command,org.eclipse.cdt.ui,5.1.1.200909110608,"org.eclipse.cdt.ui.edit.text.c.toggle.comment",1464201360846
executed,command,org.eclipse.cdt.ui,5.1.1.200909110608,"org.eclipse.cdt.ui.edit.text.c.toggle.comment",1464201365133
executed,command,org.eclipse.ui.ide,3.5.1.M20090826-0800,"org.eclipse.ui.project.buildAll",1464201368535
deactivated,workbench,org.eclipse.ui.workbench,3.5.1.M20090826-0800a,"",1464201368816
activated,workbench,org.eclipse.ui.workbench,3.5.1.M20090826-0800a,"",1464201370751
deactivated,workbench,org.eclipse.ui.workbench,3.5.1.M20090826-0800a,"",1464201380902
activated,workbench,org.eclipse.ui.workbench,3.5.1.M20090826-0800a,"",1464201383204
deactivated,workbench,org.eclipse.ui.workbench,3.5.1.M20090826-0800a,"",1464201383220
activated,workbench,org.eclipse.ui.workbench,3.5.1.M20090826-0800a,"",1464201385253
deactivated,workbench,org.eclipse.ui.workbench,3.5.1.M20090826-0800a,"",1464201386519
activated,workbench,org.eclipse.ui.workbench,3.5.1.M20090826-0800a,"",1464201391924
executed,command,org.eclipse.ui.ide,3.5.1.M20090826-0800,"org.eclipse.ui.project.buildAll",1464201394574
deactivated,workbench,org.eclipse.ui.workbench,3.5.1.M20090826-0800a,"",1464201394843
activated,workbench,org.eclipse.ui.workbench,3.5.1.M20090826-0800a,"",1464201398948
