what,kind,bundleId,bundleVersion,description,time
error,log,,,"SOPC design not set.",1463251915482
error,log,,,"CPU module not set.",1463251915483
error,log,,,"The SOPC design does not contain a CPU of a supported architecture.",1463251915483
error,log,,,"CPU architecture type not set. ",1463251915483
error,log,,,"CPU master group not set.",1463251915484
activated,view,com.altera.sbtgui.launch,10.1.1.153,"com.altera.sbtgui.launch.hardware.ByteStreamConsoleView",1463251916641
activated,view,org.eclipse.ui.console,3.4.0.v20090513,"org.eclipse.ui.console.ConsoleView",1463251919209
activated,view,com.altera.sbtgui.launch,10.1.1.153,"com.altera.sbtgui.launch.hardware.ByteStreamConsoleView",1463251925278
activated,editor,org.eclipse.cdt.ui,5.1.1.200909110608,"org.eclipse.cdt.ui.editor.CEditor",1463251930434
activated,view,com.altera.sbtgui.launch,10.1.1.153,"com.altera.sbtgui.launch.hardware.ByteStreamConsoleView",1463251953975
activated,editor,org.eclipse.cdt.ui,5.1.1.200909110608,"org.eclipse.cdt.ui.editor.CEditor",1463251965036
executed,command,org.eclipse.ui,3.5.1.M20090902-1000,"org.eclipse.ui.edit.cut",1463251982326
executed,command,org.eclipse.ui.workbench.texteditor,3.5.0.v20090603,"org.eclipse.ui.edit.text.goto.wordNext",1463251986968
executed,command,org.eclipse.ui.workbench.texteditor,3.5.0.v20090603,"org.eclipse.ui.edit.text.goto.wordNext",1463251987278
executed,command,org.eclipse.ui.workbench.texteditor,3.5.0.v20090603,"org.eclipse.ui.edit.text.goto.lineEnd",1463251988443
executed,command,org.eclipse.ui,3.5.1.M20090902-1000,"org.eclipse.ui.edit.paste",1463251989623
executed,command,org.eclipse.ui,3.5.1.M20090902-1000,"org.eclipse.ui.edit.delete",1463252000370
executed,command,org.eclipse.ui,3.5.1.M20090902-1000,"org.eclipse.ui.edit.delete",1463252003470
executed,command,org.eclipse.ui,3.5.1.M20090902-1000,"org.eclipse.ui.file.save",1463252004571
activated,view,com.altera.sbtgui.launch,10.1.1.153,"com.altera.sbtgui.launch.hardware.ByteStreamConsoleView",1463252023086
deactivated,workbench,org.eclipse.ui.workbench,3.5.1.M20090826-0800a,"",1463252032782
activated,workbench,org.eclipse.ui.workbench,3.5.1.M20090826-0800a,"",1463252033329
error,log,,,"SOPC design not set.",1463252033351
error,log,,,"CPU module not set.",1463252033353
error,log,,,"The SOPC design does not contain a CPU of a supported architecture.",1463252033355
