what,kind,bundleId,bundleVersion,description,time
stopped,bundle,org.eclipse.cdt.mylyn.ui,1.0.100.200909110608,"org.eclipse.cdt.mylyn.ui",1467663833791
stopped,bundle,com.altera.sbtgui.flash.plugin,10.1.0.153,"com.altera.sbtgui.flash.plugin",1467663833792
stopped,bundle,com.altera.sbtgui.gprof,10.1.0.153,"com.altera.sbtgui.gprof",1467663833793
stopped,bundle,com.altera.sbtgui.core,10.1.0.153,"com.altera.sbtgui.core",1467663833793
stopped,bundle,org.eclipse.cdt.ui,5.1.1.200909110608,"org.eclipse.cdt.ui",1467663833801
stopped,bundle,org.eclipse.cdt.core,5.1.1.200909110608,"org.eclipse.cdt.core",1467663833812
stopped,bundle,org.eclipse.compare.win32,1.0.0.I20090430-0408,"org.eclipse.compare.win32",1467663833813
stopped,bundle,org.eclipse.mylyn.bugzilla.ui,3.2.2.v20090912-0400-e3x,"org.eclipse.mylyn.bugzilla.ui",1467663833813
stopped,bundle,org.eclipse.mylyn.ide.ui,3.2.2.v20090912-0400-e3x,"org.eclipse.mylyn.ide.ui",1467663833814
stopped,bundle,org.eclipse.mylyn.team.ui,3.2.2.v20090912-0400-e3x,"org.eclipse.mylyn.team.ui",1467663833814
stopped,bundle,org.eclipse.mylyn.resources.ui,3.2.2.v20090912-0400-e3x,"org.eclipse.mylyn.resources.ui",1467663833815
stopped,bundle,org.eclipse.mylyn.wikitext.tasks.ui,1.1.2.v20090912-0400-e3x,"org.eclipse.mylyn.wikitext.tasks.ui",1467663833816
stopped,bundle,org.eclipse.mylyn.context.ui,3.2.2.v20090912-0400-e3x,"org.eclipse.mylyn.context.ui",1467663833816
stopped,bundle,org.eclipse.mylyn.help.ui,3.2.2.v20090912-0400-e3x,"org.eclipse.mylyn.help.ui",1467663833818
stopped,bundle,org.eclipse.mylyn.tasks.bugs,3.2.2.v20090912-0400-e3x,"org.eclipse.mylyn.tasks.bugs",1467663833819
stopped,bundle,org.eclipse.mylyn.tasks.ui,3.2.2.v20090912-0400-e3x,"org.eclipse.mylyn.tasks.ui",1467663833819
stopped,bundle,org.eclipse.search,3.5.1.r351_v20090708-0800,"org.eclipse.search",1467663833820
stopped,bundle,org.eclipse.ltk.ui.refactoring,3.4.100.v20090604,"org.eclipse.ltk.ui.refactoring",1467663833821
stopped,bundle,org.eclipse.team.cvs.ui,3.3.201.R35x_v20090826-0905,"org.eclipse.team.cvs.ui",1467663833846
