+----------------------------------------------------------------------------------------------------------------------------------------------------------------------------------------------------------------------------------------------------------------------------------------------------------------------+
; Legal Partition Candidates                                                                                                                                                                                                                                                                                           ;
+-----------------------------------------------------------------------------------------------------------------+-------+----------------+--------------+----------------+--------+-----------------+---------------+-----------------+-------+----------------+--------------+------------------+-------------------+
; Hierarchy                                                                                                       ; Input ; Constant Input ; Unused Input ; Floating Input ; Output ; Constant Output ; Unused Output ; Floating Output ; Bidir ; Constant Bidir ; Unused Bidir ; Input only Bidir ; Output only Bidir ;
+-----------------------------------------------------------------------------------------------------------------+-------+----------------+--------------+----------------+--------+-----------------+---------------+-----------------+-------+----------------+--------------+------------------+-------------------+
; inst36                                                                                                          ; 4     ; 0              ; 0            ; 0              ; 2      ; 0               ; 0             ; 0               ; 0     ; 0              ; 0            ; 0                ; 0                 ;
; inst9                                                                                                           ; 1     ; 0              ; 0            ; 0              ; 1      ; 0               ; 0             ; 0               ; 0     ; 0              ; 0            ; 0                ; 0                 ;
; inst1                                                                                                           ; 1     ; 0              ; 0            ; 0              ; 2      ; 0               ; 0             ; 0               ; 0     ; 0              ; 0            ; 0                ; 0                 ;
; inst|my_controller_reset_clk_0_domain_synch                                                                     ; 3     ; 1              ; 0            ; 1              ; 1      ; 1               ; 1             ; 1               ; 0     ; 0              ; 0            ; 0                ; 0                 ;
; inst|the_timer_1                                                                                                ; 23    ; 0              ; 0            ; 0              ; 17     ; 0               ; 0             ; 0               ; 0     ; 0              ; 0            ; 0                ; 0                 ;
; inst|the_timer_1_s1                                                                                             ; 79    ; 0              ; 18           ; 0              ; 44     ; 0               ; 0             ; 0               ; 0     ; 0              ; 0            ; 0                ; 0                 ;
; inst|the_timer_0                                                                                                ; 23    ; 0              ; 0            ; 0              ; 17     ; 0               ; 0             ; 0               ; 0     ; 0              ; 0            ; 0                ; 0                 ;
; inst|the_timer_0_s1                                                                                             ; 79    ; 0              ; 18           ; 0              ; 44     ; 0               ; 0             ; 0               ; 0     ; 0              ; 0            ; 0                ; 0                 ;
; inst|the_sysid                                                                                                  ; 3     ; 15             ; 1            ; 15             ; 32     ; 15              ; 15            ; 15              ; 0     ; 0              ; 0            ; 0                ; 0                 ;
; inst|the_sysid_control_slave                                                                                    ; 61    ; 0              ; 2            ; 0              ; 39     ; 0               ; 0             ; 0               ; 0     ; 0              ; 0            ; 0                ; 0                 ;
; inst|the_switch_pio                                                                                             ; 20    ; 0              ; 0            ; 0              ; 16     ; 0               ; 0             ; 0               ; 0     ; 0              ; 0            ; 0                ; 0                 ;
; inst|the_switch_pio_s1                                                                                          ; 45    ; 0              ; 2            ; 0              ; 24     ; 0               ; 0             ; 0               ; 0     ; 0              ; 0            ; 0                ; 0                 ;
; inst|the_seven_segment_right_pio                                                                                ; 38    ; 0              ; 0            ; 0              ; 64     ; 0               ; 0             ; 0               ; 0     ; 0              ; 0            ; 0                ; 0                 ;
; inst|the_seven_segment_right_pio_s1                                                                             ; 94    ; 0              ; 2            ; 0              ; 74     ; 0               ; 0             ; 0               ; 0     ; 0              ; 0            ; 0                ; 0                 ;
; inst|the_seven_segment_pio                                                                                      ; 22    ; 0              ; 0            ; 0              ; 32     ; 0               ; 0             ; 0               ; 0     ; 0              ; 0            ; 0                ; 0                 ;
; inst|the_seven_segment_pio_s1                                                                                   ; 78    ; 0              ; 18           ; 0              ; 42     ; 0               ; 0             ; 0               ; 0     ; 0              ; 0            ; 0                ; 0                 ;
; inst|the_seven_segment_middle_pio                                                                               ; 22    ; 0              ; 0            ; 0              ; 32     ; 0               ; 0             ; 0               ; 0     ; 0              ; 0            ; 0                ; 0                 ;
; inst|the_seven_segment_middle_pio_s1                                                                            ; 78    ; 0              ; 18           ; 0              ; 42     ; 0               ; 0             ; 0               ; 0     ; 0              ; 0            ; 0                ; 0                 ;
; inst|the_sdram_0|the_sdram_0_input_efifo_module                                                                 ; 45    ; 2              ; 0            ; 2              ; 45     ; 2               ; 2             ; 2               ; 0     ; 0              ; 0            ; 0                ; 0                 ;
; inst|the_sdram_0                                                                                                ; 45    ; 1              ; 1            ; 1              ; 39     ; 1               ; 1             ; 1               ; 16    ; 0              ; 0            ; 0                ; 0                 ;
; inst|the_sdram_0_s1|rdv_fifo_for_my_controller_burst_1_downstream_to_sdram_0_s1                                 ; 7     ; 4              ; 0            ; 4              ; 4      ; 4               ; 4             ; 4               ; 0     ; 0              ; 0            ; 0                ; 0                 ;
; inst|the_sdram_0_s1|rdv_fifo_for_cpu_0_data_master_to_sdram_0_s1                                                ; 7     ; 4              ; 0            ; 4              ; 4      ; 4               ; 4             ; 4               ; 0     ; 0              ; 0            ; 0                ; 0                 ;
; inst|the_sdram_0_s1                                                                                             ; 121   ; 0              ; 5            ; 0              ; 74     ; 0               ; 0             ; 0               ; 0     ; 0              ; 0            ; 0                ; 0                 ;
; inst|the_sd_dat                                                                                                 ; 7     ; 0              ; 0            ; 0              ; 1      ; 0               ; 0             ; 0               ; 1     ; 0              ; 0            ; 0                ; 0                 ;
; inst|the_sd_dat_s1                                                                                              ; 63    ; 0              ; 33           ; 0              ; 12     ; 0               ; 0             ; 0               ; 0     ; 0              ; 0            ; 0                ; 0                 ;
; inst|the_sd_cmd                                                                                                 ; 7     ; 0              ; 0            ; 0              ; 1      ; 0               ; 0             ; 0               ; 1     ; 0              ; 0            ; 0                ; 0                 ;
; inst|the_sd_cmd_s1                                                                                              ; 63    ; 0              ; 33           ; 0              ; 12     ; 0               ; 0             ; 0               ; 0     ; 0              ; 0            ; 0                ; 0                 ;
; inst|the_sd_clk                                                                                                 ; 7     ; 0              ; 0            ; 0              ; 2      ; 0               ; 0             ; 0               ; 0     ; 0              ; 0            ; 0                ; 0                 ;
; inst|the_sd_clk_s1                                                                                              ; 63    ; 0              ; 33           ; 0              ; 12     ; 0               ; 0             ; 0               ; 0     ; 0              ; 0            ; 0                ; 0                 ;
; inst|the_red_led_pio                                                                                            ; 14    ; 0              ; 0            ; 0              ; 16     ; 0               ; 0             ; 0               ; 0     ; 0              ; 0            ; 0                ; 0                 ;
; inst|the_red_led_pio_s1                                                                                         ; 74    ; 0              ; 29           ; 0              ; 26     ; 0               ; 0             ; 0               ; 0     ; 0              ; 0            ; 0                ; 0                 ;
; inst|the_open_i2c_0|open_i2c_0|byte_ctrl|bit_ctrl                                                               ; 27    ; 2              ; 0            ; 2              ; 8      ; 2               ; 2             ; 2               ; 0     ; 0              ; 0            ; 0                ; 0                 ;
; inst|the_open_i2c_0|open_i2c_0|byte_ctrl                                                                        ; 35    ; 0              ; 0            ; 0              ; 16     ; 0               ; 0             ; 0               ; 0     ; 0              ; 0            ; 0                ; 0                 ;
; inst|the_open_i2c_0|open_i2c_0                                                                                  ; 19    ; 0              ; 0            ; 0              ; 14     ; 0               ; 0             ; 0               ; 0     ; 0              ; 0            ; 0                ; 0                 ;
; inst|the_open_i2c_0                                                                                             ; 19    ; 0              ; 0            ; 0              ; 14     ; 0               ; 0             ; 0               ; 0     ; 0              ; 0            ; 0                ; 0                 ;
; inst|the_open_i2c_0_avalon_slave_0                                                                              ; 76    ; 0              ; 29           ; 0              ; 30     ; 0               ; 0             ; 0               ; 0     ; 0              ; 0            ; 0                ; 0                 ;
; inst|the_my_controller_burst_1                                                                                  ; 88    ; 40             ; 5            ; 40             ; 91     ; 40              ; 40            ; 40              ; 0     ; 0              ; 0            ; 0                ; 0                 ;
; inst|the_my_controller_burst_1_downstream                                                                       ; 69    ; 0              ; 21           ; 0              ; 43     ; 0               ; 0             ; 0               ; 0     ; 0              ; 0            ; 0                ; 0                 ;
; inst|the_my_controller_burst_1_upstream|rdv_fifo_for_cpu_0_instruction_master_to_my_controller_burst_1_upstream ; 7     ; 5              ; 0            ; 5              ; 4      ; 5               ; 5             ; 5               ; 0     ; 0              ; 0            ; 0                ; 0                 ;
; inst|the_my_controller_burst_1_upstream|burstcount_fifo_for_my_controller_burst_1_upstream                      ; 11    ; 6              ; 0            ; 6              ; 8      ; 6               ; 6             ; 6               ; 0     ; 0              ; 0            ; 0                ; 0                 ;
; inst|the_my_controller_burst_1_upstream                                                                         ; 54    ; 5              ; 1            ; 5              ; 75     ; 5               ; 5             ; 5               ; 0     ; 0              ; 0            ; 0                ; 0                 ;
; inst|the_my_controller_burst_0                                                                                  ; 99    ; 43             ; 6            ; 43             ; 100    ; 43              ; 43            ; 43              ; 0     ; 0              ; 0            ; 0                ; 0                 ;
; inst|the_my_controller_burst_0_downstream                                                                       ; 89    ; 0              ; 37           ; 0              ; 47     ; 0               ; 0             ; 0               ; 0     ; 0              ; 0            ; 0                ; 0                 ;
; inst|the_my_controller_burst_0_upstream|rdv_fifo_for_cpu_0_instruction_master_to_my_controller_burst_0_upstream ; 7     ; 5              ; 0            ; 5              ; 4      ; 5               ; 5             ; 5               ; 0     ; 0              ; 0            ; 0                ; 0                 ;
; inst|the_my_controller_burst_0_upstream|burstcount_fifo_for_my_controller_burst_0_upstream                      ; 10    ; 4              ; 0            ; 4              ; 7      ; 4               ; 4             ; 4               ; 0     ; 0              ; 0            ; 0                ; 0                 ;
; inst|the_my_controller_burst_0_upstream                                                                         ; 68    ; 6              ; 0            ; 6              ; 70     ; 6               ; 6             ; 6               ; 0     ; 0              ; 0            ; 0                ; 0                 ;
; inst|the_led_pio                                                                                                ; 14    ; 0              ; 0            ; 0              ; 16     ; 0               ; 0             ; 0               ; 0     ; 0              ; 0            ; 0                ; 0                 ;
; inst|the_led_pio_s1                                                                                             ; 74    ; 0              ; 29           ; 0              ; 26     ; 0               ; 0             ; 0               ; 0     ; 0              ; 0            ; 0                ; 0                 ;
; inst|the_lcd_display                                                                                            ; 13    ; 0              ; 1            ; 0              ; 11     ; 0               ; 0             ; 0               ; 8     ; 0              ; 0            ; 0                ; 0                 ;
; inst|the_lcd_display_control_slave                                                                              ; 73    ; 0              ; 29           ; 0              ; 28     ; 0               ; 0             ; 0               ; 0     ; 0              ; 0            ; 0                ; 0                 ;
; inst|the_jtag_uart_0|the_jtag_uart_0_scfifo_r|rfifo|auto_generated|dpfifo|wr_ptr                                ; 4     ; 0              ; 0            ; 0              ; 6      ; 0               ; 0             ; 0               ; 0     ; 0              ; 0            ; 0                ; 0                 ;
; inst|the_jtag_uart_0|the_jtag_uart_0_scfifo_r|rfifo|auto_generated|dpfifo|rd_ptr_count                          ; 4     ; 0              ; 0            ; 0              ; 6      ; 0               ; 0             ; 0               ; 0     ; 0              ; 0            ; 0                ; 0                 ;
; inst|the_jtag_uart_0|the_jtag_uart_0_scfifo_r|rfifo|auto_generated|dpfifo|FIFOram|altsyncram2                   ; 24    ; 0              ; 0            ; 0              ; 8      ; 0               ; 0             ; 0               ; 0     ; 0              ; 0            ; 0                ; 0                 ;
; inst|the_jtag_uart_0|the_jtag_uart_0_scfifo_r|rfifo|auto_generated|dpfifo|FIFOram                               ; 24    ; 0              ; 0            ; 0              ; 8      ; 0               ; 0             ; 0               ; 0     ; 0              ; 0            ; 0                ; 0                 ;
; inst|the_jtag_uart_0|the_jtag_uart_0_scfifo_r|rfifo|auto_generated|dpfifo|fifo_state|count_usedw                ; 5     ; 0              ; 0            ; 0              ; 6      ; 0               ; 0             ; 0               ; 0     ; 0              ; 0            ; 0                ; 0                 ;
; inst|the_jtag_uart_0|the_jtag_uart_0_scfifo_r|rfifo|auto_generated|dpfifo|fifo_state                            ; 5     ; 0              ; 0            ; 0              ; 8      ; 0               ; 0             ; 0               ; 0     ; 0              ; 0            ; 0                ; 0                 ;
; inst|the_jtag_uart_0|the_jtag_uart_0_scfifo_r|rfifo|auto_generated|dpfifo                                       ; 13    ; 0              ; 0            ; 0              ; 16     ; 0               ; 0             ; 0               ; 0     ; 0              ; 0            ; 0                ; 0                 ;
; inst|the_jtag_uart_0|the_jtag_uart_0_scfifo_r|rfifo|auto_generated                                              ; 12    ; 0              ; 0            ; 0              ; 16     ; 0               ; 0             ; 0               ; 0     ; 0              ; 0            ; 0                ; 0                 ;
; inst|the_jtag_uart_0|the_jtag_uart_0_scfifo_r                                                                   ; 13    ; 0              ; 1            ; 0              ; 16     ; 0               ; 0             ; 0               ; 0     ; 0              ; 0            ; 0                ; 0                 ;
; inst|the_jtag_uart_0|the_jtag_uart_0_scfifo_w|wfifo|auto_generated|dpfifo|wr_ptr                                ; 4     ; 0              ; 0            ; 0              ; 6      ; 0               ; 0             ; 0               ; 0     ; 0              ; 0            ; 0                ; 0                 ;
; inst|the_jtag_uart_0|the_jtag_uart_0_scfifo_w|wfifo|auto_generated|dpfifo|rd_ptr_count                          ; 4     ; 0              ; 0            ; 0              ; 6      ; 0               ; 0             ; 0               ; 0     ; 0              ; 0            ; 0                ; 0                 ;
; inst|the_jtag_uart_0|the_jtag_uart_0_scfifo_w|wfifo|auto_generated|dpfifo|FIFOram|altsyncram2                   ; 24    ; 0              ; 0            ; 0              ; 8      ; 0               ; 0             ; 0               ; 0     ; 0              ; 0            ; 0                ; 0                 ;
; inst|the_jtag_uart_0|the_jtag_uart_0_scfifo_w|wfifo|auto_generated|dpfifo|FIFOram                               ; 24    ; 0              ; 0            ; 0              ; 8      ; 0               ; 0             ; 0               ; 0     ; 0              ; 0            ; 0                ; 0                 ;
; inst|the_jtag_uart_0|the_jtag_uart_0_scfifo_w|wfifo|auto_generated|dpfifo|fifo_state|count_usedw                ; 5     ; 0              ; 0            ; 0              ; 6      ; 0               ; 0             ; 0               ; 0     ; 0              ; 0            ; 0                ; 0                 ;
; inst|the_jtag_uart_0|the_jtag_uart_0_scfifo_w|wfifo|auto_generated|dpfifo|fifo_state                            ; 5     ; 0              ; 0            ; 0              ; 8      ; 0               ; 0             ; 0               ; 0     ; 0              ; 0            ; 0                ; 0                 ;
; inst|the_jtag_uart_0|the_jtag_uart_0_scfifo_w|wfifo|auto_generated|dpfifo                                       ; 13    ; 0              ; 0            ; 0              ; 16     ; 0               ; 0             ; 0               ; 0     ; 0              ; 0            ; 0                ; 0                 ;
; inst|the_jtag_uart_0|the_jtag_uart_0_scfifo_w|wfifo|auto_generated                                              ; 12    ; 0              ; 0            ; 0              ; 16     ; 0               ; 0             ; 0               ; 0     ; 0              ; 0            ; 0                ; 0                 ;
; inst|the_jtag_uart_0|the_jtag_uart_0_scfifo_w                                                                   ; 12    ; 0              ; 0            ; 0              ; 16     ; 0               ; 0             ; 0               ; 0     ; 0              ; 0            ; 0                ; 0                 ;
; inst|the_jtag_uart_0                                                                                            ; 38    ; 9              ; 23           ; 9              ; 36     ; 9               ; 9             ; 9               ; 0     ; 0              ; 0            ; 0                ; 0                 ;
; inst|the_jtag_uart_0_avalon_jtag_slave                                                                          ; 98    ; 2              ; 2            ; 2              ; 78     ; 2               ; 2             ; 2               ; 0     ; 0              ; 0            ; 0                ; 0                 ;
; inst|the_green_led_pio                                                                                          ; 14    ; 0              ; 0            ; 0              ; 16     ; 0               ; 0             ; 0               ; 0     ; 0              ; 0            ; 0                ; 0                 ;
; inst|the_green_led_pio_s1                                                                                       ; 74    ; 0              ; 29           ; 0              ; 26     ; 0               ; 0             ; 0               ; 0     ; 0              ; 0            ; 0                ; 0                 ;
; inst|the_cpu_0                                                                                                  ; 150   ; 6              ; 27           ; 6              ; 127    ; 6               ; 6             ; 6               ; 0     ; 0              ; 0            ; 0                ; 0                 ;
; inst|the_cpu_0_instruction_master                                                                               ; 94    ; 0              ; 8            ; 0              ; 62     ; 0               ; 0             ; 0               ; 0     ; 0              ; 0            ; 0                ; 0                 ;
; inst|the_cpu_0_data_master                                                                                      ; 452   ; 27             ; 63           ; 27             ; 109    ; 27              ; 27            ; 27              ; 0     ; 0              ; 0            ; 0                ; 0                 ;
; inst|the_cpu_0_jtag_debug_module                                                                                ; 156   ; 0              ; 5            ; 0              ; 92     ; 0               ; 0             ; 0               ; 0     ; 0              ; 0            ; 0                ; 0                 ;
; inst|the_button_pio                                                                                             ; 14    ; 0              ; 0            ; 0              ; 5      ; 0               ; 0             ; 0               ; 0     ; 0              ; 0            ; 0                ; 0                 ;
; inst|the_button_pio_s1                                                                                          ; 67    ; 0              ; 30           ; 0              ; 19     ; 0               ; 0             ; 0               ; 0     ; 0              ; 0            ; 0                ; 0                 ;
; inst|the_audio_0|audio_0|wrapper|u0|dcfifo_component|auto_generated|wrfull_eq_comp                              ; 18    ; 0              ; 0            ; 0              ; 1      ; 0               ; 0             ; 0               ; 0     ; 0              ; 0            ; 0                ; 0                 ;
; inst|the_audio_0|audio_0|wrapper|u0|dcfifo_component|auto_generated|rdempty_eq_comp                             ; 18    ; 0              ; 0            ; 0              ; 1      ; 0               ; 0             ; 0               ; 0     ; 0              ; 0            ; 0                ; 0                 ;
; inst|the_audio_0|audio_0|wrapper|u0|dcfifo_component|auto_generated|ws_dgrp|dffpipe20                           ; 11    ; 0              ; 0            ; 0              ; 9      ; 0               ; 0             ; 0               ; 0     ; 0              ; 0            ; 0                ; 0                 ;
; inst|the_audio_0|audio_0|wrapper|u0|dcfifo_component|auto_generated|ws_dgrp                                     ; 11    ; 0              ; 0            ; 0              ; 9      ; 0               ; 0             ; 0               ; 0     ; 0              ; 0            ; 0                ; 0                 ;
; inst|the_audio_0|audio_0|wrapper|u0|dcfifo_component|auto_generated|rs_dgwp|dffpipe17                           ; 11    ; 0              ; 0            ; 0              ; 9      ; 0               ; 0             ; 0               ; 0     ; 0              ; 0            ; 0                ; 0                 ;
; inst|the_audio_0|audio_0|wrapper|u0|dcfifo_component|auto_generated|rs_dgwp                                     ; 11    ; 0              ; 0            ; 0              ; 9      ; 0               ; 0             ; 0               ; 0     ; 0              ; 0            ; 0                ; 0                 ;
; inst|the_audio_0|audio_0|wrapper|u0|dcfifo_component|auto_generated|rdaclr                                      ; 3     ; 1              ; 0            ; 1              ; 1      ; 1               ; 1             ; 1               ; 0     ; 0              ; 0            ; 0                ; 0                 ;
; inst|the_audio_0|audio_0|wrapper|u0|dcfifo_component|auto_generated|fifo_ram|altsyncram14                       ; 56    ; 17             ; 0            ; 17             ; 16     ; 17              ; 17            ; 17              ; 0     ; 0              ; 0            ; 0                ; 0                 ;
; inst|the_audio_0|audio_0|wrapper|u0|dcfifo_component|auto_generated|fifo_ram                                    ; 38    ; 0              ; 0            ; 0              ; 16     ; 0               ; 0             ; 0               ; 0     ; 0              ; 0            ; 0                ; 0                 ;
; inst|the_audio_0|audio_0|wrapper|u0|dcfifo_component|auto_generated|wrptr_gp                                    ; 3     ; 0              ; 0            ; 0              ; 9      ; 0               ; 0             ; 0               ; 0     ; 0              ; 0            ; 0                ; 0                 ;
; inst|the_audio_0|audio_0|wrapper|u0|dcfifo_component|auto_generated|wrptr_g1p                                   ; 3     ; 0              ; 0            ; 0              ; 0      ; 0               ; 0             ; 0               ; 0     ; 0              ; 0            ; 0                ; 0                 ;
; inst|the_audio_0|audio_0|wrapper|u0|dcfifo_component|auto_generated|rdptr_g1p                                   ; 3     ; 0              ; 0            ; 0              ; 9      ; 0               ; 0             ; 0               ; 0     ; 0              ; 0            ; 0                ; 0                 ;
; inst|the_audio_0|audio_0|wrapper|u0|dcfifo_component|auto_generated                                             ; 21    ; 0              ; 0            ; 0              ; 17     ; 0               ; 0             ; 0               ; 0     ; 0              ; 0            ; 0                ; 0                 ;
; inst|the_audio_0|audio_0|wrapper|u0                                                                             ; 21    ; 0              ; 0            ; 0              ; 17     ; 0               ; 0             ; 0               ; 0     ; 0              ; 0            ; 0                ; 0                 ;
; inst|the_audio_0|audio_0|wrapper                                                                                ; 20    ; 0              ; 0            ; 0              ; 4      ; 0               ; 0             ; 0               ; 0     ; 0              ; 0            ; 0                ; 0                 ;
; inst|the_audio_0|audio_0                                                                                        ; 20    ; 0              ; 0            ; 0              ; 4      ; 0               ; 0             ; 0               ; 0     ; 0              ; 0            ; 0                ; 0                 ;
; inst|the_audio_0                                                                                                ; 20    ; 0              ; 0            ; 0              ; 4      ; 0               ; 0             ; 0               ; 0     ; 0              ; 0            ; 0                ; 0                 ;
; inst|the_audio_0_avalon_slave_0                                                                                 ; 61    ; 0              ; 18           ; 0              ; 24     ; 0               ; 0             ; 0               ; 0     ; 0              ; 0            ; 0                ; 0                 ;
; inst|the_aud_full                                                                                               ; 5     ; 0              ; 0            ; 0              ; 1      ; 0               ; 0             ; 0               ; 0     ; 0              ; 0            ; 0                ; 0                 ;
; inst|the_aud_full_s1                                                                                            ; 30    ; 0              ; 2            ; 0              ; 9      ; 0               ; 0             ; 0               ; 0     ; 0              ; 0            ; 0                ; 0                 ;
; inst                                                                                                            ; 27    ; 0              ; 0            ; 0              ; 121    ; 0               ; 0             ; 0               ; 26    ; 0              ; 0            ; 0                ; 0                 ;
+-----------------------------------------------------------------------------------------------------------------+-------+----------------+--------------+----------------+--------+-----------------+---------------+-----------------+-------+----------------+--------------+------------------+-------------------+
